inventoryEntry,surveyPoint,xViewport,yViewport
http://purl.org/fr/eclats/resource/inventoryEntry_SP1_map0859,http://purl.org/fr/eclats/resource/surveyPoint1,0.5465081082175532,0.6216981621062281
http://purl.org/fr/eclats/resource/inventoryEntry_SP10_map0859,http://purl.org/fr/eclats/resource/surveyPoint10,0.714425710989298,0.6220833092118534
http://purl.org/fr/eclats/resource/inventoryEntry_SP101_map0859,http://purl.org/fr/eclats/resource/surveyPoint101,0.5169706548521463,0.6051274233883609
http://purl.org/fr/eclats/resource/inventoryEntry_SP102_map0859,http://purl.org/fr/eclats/resource/surveyPoint102,0.5475374632349747,0.5831412903112706
http://purl.org/fr/eclats/resource/inventoryEntry_SP103_map0859,http://purl.org/fr/eclats/resource/surveyPoint103,0.5097033244572003,0.5571380222913671
http://purl.org/fr/eclats/resource/inventoryEntry_SP104_map0859,http://purl.org/fr/eclats/resource/surveyPoint104,0.5597400134817759,0.5481603596131557
http://purl.org/fr/eclats/resource/inventoryEntry_SP105_map0859,http://purl.org/fr/eclats/resource/surveyPoint105,0.5892549226356221,0.5554943673422932
http://purl.org/fr/eclats/resource/inventoryEntry_SP106_map0859,http://purl.org/fr/eclats/resource/surveyPoint106,0.6158705059218239,0.5363861221491038
http://purl.org/fr/eclats/resource/inventoryEntry_SP107_map0859,http://purl.org/fr/eclats/resource/surveyPoint107,0.5493650757186058,0.5181088157474215
http://purl.org/fr/eclats/resource/inventoryEntry_SP108_map0859,http://purl.org/fr/eclats/resource/surveyPoint108,0.5944423915172071,0.48734175893250314
http://purl.org/fr/eclats/resource/inventoryEntry_SP109_map0859,http://purl.org/fr/eclats/resource/surveyPoint109,0.5528137807361233,0.4751840065276887
http://purl.org/fr/eclats/resource/inventoryEntry_SP11_map0859,http://purl.org/fr/eclats/resource/surveyPoint11,0.6775266606652515,0.6204737917823338
http://purl.org/fr/eclats/resource/inventoryEntry_SP110_map0859,http://purl.org/fr/eclats/resource/surveyPoint110,0.6740432071139435,0.49020381072923974
http://purl.org/fr/eclats/resource/inventoryEntry_SP111_map0859,http://purl.org/fr/eclats/resource/surveyPoint111,0.6298602825018224,0.4919925931022001
http://purl.org/fr/eclats/resource/inventoryEntry_SP113_map0859,http://purl.org/fr/eclats/resource/surveyPoint113,0.6430972720617291,0.46372983160942627
http://purl.org/fr/eclats/resource/inventoryEntry_SP114_map0859,http://purl.org/fr/eclats/resource/surveyPoint114,0.6121612867932531,0.4584925204491209
http://purl.org/fr/eclats/resource/inventoryEntry_SP115_map0859,http://purl.org/fr/eclats/resource/surveyPoint115,0.6273690852203928,0.4362372056776972
http://purl.org/fr/eclats/resource/inventoryEntry_SP117_map0859,http://purl.org/fr/eclats/resource/surveyPoint117,0.5735854078561187,0.4380918152419825
http://purl.org/fr/eclats/resource/inventoryEntry_SP118_map0859,http://purl.org/fr/eclats/resource/surveyPoint118,0.5907313165525969,0.4066166888478485
http://purl.org/fr/eclats/resource/inventoryEntry_SP12_map0859,http://purl.org/fr/eclats/resource/surveyPoint12,0.6781853872818104,0.5935080967290914
http://purl.org/fr/eclats/resource/inventoryEntry_SP120_map0859,http://purl.org/fr/eclats/resource/surveyPoint120,0.6976551344370203,0.4658763704569787
http://purl.org/fr/eclats/resource/inventoryEntry_SP121_map0859,http://purl.org/fr/eclats/resource/surveyPoint121,0.6989072820980918,0.4402967825236457
http://purl.org/fr/eclats/resource/inventoryEntry_SP122_map0859,http://purl.org/fr/eclats/resource/surveyPoint122,0.6754742330123118,0.4424433213711979
http://purl.org/fr/eclats/resource/inventoryEntry_SP124_map0859,http://purl.org/fr/eclats/resource/surveyPoint124,0.6541589636511546,0.40587484502213445
http://purl.org/fr/eclats/resource/inventoryEntry_SP126_map0859,http://purl.org/fr/eclats/resource/surveyPoint126,0.6263398201868748,0.4073585326735627
http://purl.org/fr/eclats/resource/inventoryEntry_SP128_map0859,http://purl.org/fr/eclats/resource/surveyPoint128,0.6003752862868805,0.3710081852135706
http://purl.org/fr/eclats/resource/inventoryEntry_SP13_map0859,http://purl.org/fr/eclats/resource/surveyPoint13,0.7163903443060877,0.5805258297790943
http://purl.org/fr/eclats/resource/inventoryEntry_SP130_map0859,http://purl.org/fr/eclats/resource/surveyPoint130,0.7418380590491407,0.4397601478117576
http://purl.org/fr/eclats/resource/inventoryEntry_SP132_map0859,http://purl.org/fr/eclats/resource/surveyPoint132,0.7171528623022876,0.41274953398005604
http://purl.org/fr/eclats/resource/inventoryEntry_SP133_map0859,http://purl.org/fr/eclats/resource/surveyPoint133,0.6888901008095139,0.41006636042061545
http://purl.org/fr/eclats/resource/inventoryEntry_SP135_map0859,http://purl.org/fr/eclats/resource/surveyPoint135,0.6578681827797253,0.37434648242928414
http://purl.org/fr/eclats/resource/inventoryEntry_SP14_map0859,http://purl.org/fr/eclats/resource/surveyPoint14,0.6956934989560026,0.5662810354705629
http://purl.org/fr/eclats/resource/inventoryEntry_SP140_map0859,http://purl.org/fr/eclats/resource/surveyPoint140,0.7686903340189335,0.4232549387276999
http://purl.org/fr/eclats/resource/inventoryEntry_SP143_map0859,http://purl.org/fr/eclats/resource/surveyPoint143,0.7350199406539941,0.385103217902139
http://purl.org/fr/eclats/resource/inventoryEntry_SP144_map0859,http://purl.org/fr/eclats/resource/surveyPoint144,0.7057171095382863,0.3717500290392848
http://purl.org/fr/eclats/resource/inventoryEntry_SP146_map0859,http://purl.org/fr/eclats/resource/surveyPoint146,0.6638029333854383,0.33465783775357855
http://purl.org/fr/eclats/resource/inventoryEntry_SP147_map0859,http://purl.org/fr/eclats/resource/surveyPoint147,0.6593518704311534,0.31759542976215366
http://purl.org/fr/eclats/resource/inventoryEntry_SP148_map0859,http://purl.org/fr/eclats/resource/surveyPoint148,0.6252270544483038,0.31462805445929715
http://purl.org/fr/eclats/resource/inventoryEntry_SP150_map0859,http://purl.org/fr/eclats/resource/surveyPoint150,0.7826222971526369,0.39790264028448485
http://purl.org/fr/eclats/resource/inventoryEntry_SP153_map0859,http://purl.org/fr/eclats/resource/surveyPoint153,0.7505986609939908,0.36396066886928646
http://purl.org/fr/eclats/resource/inventoryEntry_SP154_map0859,http://purl.org/fr/eclats/resource/surveyPoint154,0.7301979557868523,0.3472691827907186
http://purl.org/fr/eclats/resource/inventoryEntry_SP155_map0859,http://purl.org/fr/eclats/resource/surveyPoint155,0.691992998762575,0.3350287596664356
http://purl.org/fr/eclats/resource/inventoryEntry_SP156_map0859,http://purl.org/fr/eclats/resource/surveyPoint156,0.7012660465840015,0.31240252298215476
http://purl.org/fr/eclats/resource/inventoryEntry_SP158_map0859,http://purl.org/fr/eclats/resource/surveyPoint158,0.6393541509533764,0.2776984014136632
http://purl.org/fr/eclats/resource/inventoryEntry_SP16_map0859,http://purl.org/fr/eclats/resource/surveyPoint16,0.66742471233399,0.5520956808336686
http://purl.org/fr/eclats/resource/inventoryEntry_SP160_map0859,http://purl.org/fr/eclats/resource/surveyPoint160,0.8177355272211191,0.3880705932049955
http://purl.org/fr/eclats/resource/inventoryEntry_SP162_map0859,http://purl.org/fr/eclats/resource/surveyPoint162,0.7787887263711275,0.367298966085
http://purl.org/fr/eclats/resource/inventoryEntry_SP163_map0859,http://purl.org/fr/eclats/resource/surveyPoint163,0.7702575223754151,0.3290940090607226
http://purl.org/fr/eclats/resource/inventoryEntry_SP164_map0859,http://purl.org/fr/eclats/resource/surveyPoint164,0.7379873159568507,0.3112897572435836
http://purl.org/fr/eclats/resource/inventoryEntry_SP165_map0859,http://purl.org/fr/eclats/resource/surveyPoint165,0.7105390944054282,0.2823578480407327
http://purl.org/fr/eclats/resource/inventoryEntry_SP166_map0859,http://purl.org/fr/eclats/resource/surveyPoint166,0.6868000919825761,0.2927436616007305
http://purl.org/fr/eclats/resource/inventoryEntry_SP167_map0859,http://purl.org/fr/eclats/resource/surveyPoint167,0.6589305852430547,0.26945569223906185
http://purl.org/fr/eclats/resource/inventoryEntry_SP169_map0859,http://purl.org/fr/eclats/resource/surveyPoint169,0.6076280781706249,0.24921124779082682
http://purl.org/fr/eclats/resource/inventoryEntry_SP17_map0859,http://purl.org/fr/eclats/resource/surveyPoint17,0.6983706473862045,0.5195398416457898
http://purl.org/fr/eclats/resource/inventoryEntry_SP170_map0859,http://purl.org/fr/eclats/resource/surveyPoint170,0.8192192148725472,0.3624769812178582
http://purl.org/fr/eclats/resource/inventoryEntry_SP171_map0859,http://purl.org/fr/eclats/resource/surveyPoint171,0.7951092905368382,0.3405925883592915
http://purl.org/fr/eclats/resource/inventoryEntry_SP173_map0859,http://purl.org/fr/eclats/resource/surveyPoint173,0.7672901470725586,0.3072096162021559
http://purl.org/fr/eclats/resource/inventoryEntry_SP174_map0859,http://purl.org/fr/eclats/resource/surveyPoint174,0.7442929884754208,0.28161600421501864
http://purl.org/fr/eclats/resource/inventoryEntry_SP175_map0859,http://purl.org/fr/eclats/resource/surveyPoint175,0.7238419199930407,0.259925059755929
http://purl.org/fr/eclats/resource/inventoryEntry_SP176_map0859,http://purl.org/fr/eclats/resource/surveyPoint176,0.7208764795894398,0.23774490070363352
http://purl.org/fr/eclats/resource/inventoryEntry_SP177_map0859,http://purl.org/fr/eclats/resource/surveyPoint177,0.6921590066031668,0.25116718125791504
http://purl.org/fr/eclats/resource/inventoryEntry_SP178_map0859,http://purl.org/fr/eclats/resource/surveyPoint178,0.653349355623492,0.2258139743525052
http://purl.org/fr/eclats/resource/inventoryEntry_SP179_map0859,http://purl.org/fr/eclats/resource/surveyPoint179,0.6175021568693662,0.22237951219642127
http://purl.org/fr/eclats/resource/inventoryEntry_SP180_map0859,http://purl.org/fr/eclats/resource/surveyPoint180,0.8488929679011123,0.37991031112214013
http://purl.org/fr/eclats/resource/inventoryEntry_SP181_map0859,http://purl.org/fr/eclats/resource/surveyPoint181,0.7591298649897034,0.26752097152645027
http://purl.org/fr/eclats/resource/inventoryEntry_SP182_map0859,http://purl.org/fr/eclats/resource/surveyPoint182,0.7454790315763693,0.24421239539184514
http://purl.org/fr/eclats/resource/inventoryEntry_SP183_map0859,http://purl.org/fr/eclats/resource/surveyPoint183,0.7382666610485933,0.21021122004661444
http://purl.org/fr/eclats/resource/inventoryEntry_SP184_map0859,http://purl.org/fr/eclats/resource/surveyPoint184,0.7460617816777869,0.19981706100828717
http://purl.org/fr/eclats/resource/inventoryEntry_SP185_map0859,http://purl.org/fr/eclats/resource/surveyPoint185,0.7023790561190836,0.22986976001823434
http://purl.org/fr/eclats/resource/inventoryEntry_SP186_map0859,http://purl.org/fr/eclats/resource/surveyPoint186,0.7160603526941995,0.18880387821684372
http://purl.org/fr/eclats/resource/inventoryEntry_SP187_map0859,http://purl.org/fr/eclats/resource/surveyPoint187,0.6866048479800633,0.20981313563885653
http://purl.org/fr/eclats/resource/inventoryEntry_SP188_map0859,http://purl.org/fr/eclats/resource/surveyPoint188,0.6720242435971983,0.20048481595138634
http://purl.org/fr/eclats/resource/inventoryEntry_SP189_map0859,http://purl.org/fr/eclats/resource/surveyPoint189,0.6419419299288109,0.19525576956380547
http://purl.org/fr/eclats/resource/inventoryEntry_SP19_map0859,http://purl.org/fr/eclats/resource/surveyPoint19,0.6586596787064842,0.5220441369679343
http://purl.org/fr/eclats/resource/inventoryEntry_SP190_map0859,http://purl.org/fr/eclats/resource/surveyPoint190,0.7589590669230724,0.16914534877712067
http://purl.org/fr/eclats/resource/inventoryEntry_SP191_map0859,http://purl.org/fr/eclats/resource/surveyPoint191,0.7754874160492261,0.14553342145404377
http://purl.org/fr/eclats/resource/inventoryEntry_SP192_map0859,http://purl.org/fr/eclats/resource/surveyPoint192,0.7309493339544852,0.15569692333017243
http://purl.org/fr/eclats/resource/inventoryEntry_SP193_map0859,http://purl.org/fr/eclats/resource/surveyPoint193,0.762789332767831,0.12427014609603258
http://purl.org/fr/eclats/resource/inventoryEntry_SP194_map0859,http://purl.org/fr/eclats/resource/surveyPoint194,0.7359782623182141,0.1310131204034622
http://purl.org/fr/eclats/resource/inventoryEntry_SP195_map0859,http://purl.org/fr/eclats/resource/surveyPoint195,0.689196554377618,0.17215050316369407
http://purl.org/fr/eclats/resource/inventoryEntry_SP196_map0859,http://purl.org/fr/eclats/resource/surveyPoint196,0.7033961089898065,0.11643483173395192
http://purl.org/fr/eclats/resource/inventoryEntry_SP197_map0859,http://purl.org/fr/eclats/resource/surveyPoint197,0.6890096312345687,0.14049607037928566
http://purl.org/fr/eclats/resource/inventoryEntry_SP198_map0859,http://purl.org/fr/eclats/resource/surveyPoint198,0.656783817779576,0.16764277158383395
http://purl.org/fr/eclats/resource/inventoryEntry_SP199_map0859,http://purl.org/fr/eclats/resource/surveyPoint199,0.6540293551668654,0.11723693393636254
http://purl.org/fr/eclats/resource/inventoryEntry_SP20_map0859,http://purl.org/fr/eclats/resource/surveyPoint20,0.7468059411603669,0.6257783031476558
http://purl.org/fr/eclats/resource/inventoryEntry_SP202_map0859,http://purl.org/fr/eclats/resource/surveyPoint202,0.47454925712328316,0.5816385955176654
http://purl.org/fr/eclats/resource/inventoryEntry_SP204_map0859,http://purl.org/fr/eclats/resource/surveyPoint204,0.4561695140873706,0.5324190747311044
http://purl.org/fr/eclats/resource/inventoryEntry_SP206_map0859,http://purl.org/fr/eclats/resource/surveyPoint206,0.49659599571627494,0.5104170515436919
http://purl.org/fr/eclats/resource/inventoryEntry_SP208_map0859,http://purl.org/fr/eclats/resource/surveyPoint208,0.5040651877736877,0.44157525227156835
http://purl.org/fr/eclats/resource/inventoryEntry_SP209_map0859,http://purl.org/fr/eclats/resource/surveyPoint209,0.47063966523889045,0.46886765140548536
http://purl.org/fr/eclats/resource/inventoryEntry_SP21_map0859,http://purl.org/fr/eclats/resource/surveyPoint21,0.772884088558229,0.5990472216199407
http://purl.org/fr/eclats/resource/inventoryEntry_SP210_map0859,http://purl.org/fr/eclats/resource/surveyPoint210,0.5506717499640341,0.4066166888478485
http://purl.org/fr/eclats/resource/inventoryEntry_SP217_map0859,http://purl.org/fr/eclats/resource/surveyPoint217,0.4648131980080542,0.4164294463279595
http://purl.org/fr/eclats/resource/inventoryEntry_SP219_map0859,http://purl.org/fr/eclats/resource/surveyPoint219,0.4200413971816285,0.3931235774046146
http://purl.org/fr/eclats/resource/inventoryEntry_SP22_map0859,http://purl.org/fr/eclats/resource/surveyPoint22,0.7433297335593041,0.5966509225659739
http://purl.org/fr/eclats/resource/inventoryEntry_SP226_map0859,http://purl.org/fr/eclats/resource/surveyPoint226,0.47953269417016675,0.3618446480601255
http://purl.org/fr/eclats/resource/inventoryEntry_SP227_map0859,http://purl.org/fr/eclats/resource/surveyPoint227,0.45741475604890436,0.3459885252804722
http://purl.org/fr/eclats/resource/inventoryEntry_SP23_map0859,http://purl.org/fr/eclats/resource/surveyPoint23,0.7485787695822792,0.5704057424510984
http://purl.org/fr/eclats/resource/inventoryEntry_SP230_map0859,http://purl.org/fr/eclats/resource/surveyPoint230,0.5696823310921975,0.3302903499145676
http://purl.org/fr/eclats/resource/inventoryEntry_SP232_map0859,http://purl.org/fr/eclats/resource/surveyPoint232,0.5331053091299038,0.3202445481080222
http://purl.org/fr/eclats/resource/inventoryEntry_SP235_map0859,http://purl.org/fr/eclats/resource/surveyPoint235,0.49932893220175234,0.29665591087048293
http://purl.org/fr/eclats/resource/inventoryEntry_SP238_map0859,http://purl.org/fr/eclats/resource/surveyPoint238,0.43738497275462296,0.3100090997333371
http://purl.org/fr/eclats/resource/inventoryEntry_SP239_map0859,http://purl.org/fr/eclats/resource/surveyPoint239,0.414016892244628,0.3341190240690462
http://purl.org/fr/eclats/resource/inventoryEntry_SP24_map0859,http://purl.org/fr/eclats/resource/surveyPoint24,0.724843998000131,0.5450734381663057
http://purl.org/fr/eclats/resource/inventoryEntry_SP241_map0859,http://purl.org/fr/eclats/resource/surveyPoint241,0.5673640691368408,0.29242540464374256
http://purl.org/fr/eclats/resource/inventoryEntry_SP242_map0859,http://purl.org/fr/eclats/resource/surveyPoint242,0.5318173858213724,0.2859857881010852
http://purl.org/fr/eclats/resource/inventoryEntry_SP245_map0859,http://purl.org/fr/eclats/resource/surveyPoint245,0.4841642234057082,0.2689852004284699
http://purl.org/fr/eclats/resource/inventoryEntry_SP246_map0859,http://purl.org/fr/eclats/resource/surveyPoint246,0.46186581900318907,0.2896083945261988
http://purl.org/fr/eclats/resource/inventoryEntry_SP247_map0859,http://purl.org/fr/eclats/resource/surveyPoint247,0.455189224571762,0.2703204550576315
http://purl.org/fr/eclats/resource/inventoryEntry_SP248_map0859,http://purl.org/fr/eclats/resource/surveyPoint248,0.43738497275462296,0.28960839452619874
http://purl.org/fr/eclats/resource/inventoryEntry_SP249_map0859,http://purl.org/fr/eclats/resource/surveyPoint249,0.3995509376432026,0.2936885355676264
http://purl.org/fr/eclats/resource/inventoryEntry_SP25_map0859,http://purl.org/fr/eclats/resource/surveyPoint25,0.7687761473228572,0.5413078253672149
http://purl.org/fr/eclats/resource/inventoryEntry_SP251_map0859,http://purl.org/fr/eclats/resource/surveyPoint251,0.5705790462777962,0.26327366035811084
http://purl.org/fr/eclats/resource/inventoryEntry_SP253_map0859,http://purl.org/fr/eclats/resource/surveyPoint253,0.5261505232638339,0.2573938906516867
http://purl.org/fr/eclats/resource/inventoryEntry_SP255_map0859,http://purl.org/fr/eclats/resource/surveyPoint255,0.48236113077376425,0.23987813365565877
http://purl.org/fr/eclats/resource/inventoryEntry_SP257_map0859,http://purl.org/fr/eclats/resource/surveyPoint257,0.43145022214891,0.24398499924478012
http://purl.org/fr/eclats/resource/inventoryEntry_SP258_map0859,http://purl.org/fr/eclats/resource/surveyPoint258,0.4117913607674857,0.2603055634104908
http://purl.org/fr/eclats/resource/inventoryEntry_SP259_map0859,http://purl.org/fr/eclats/resource/surveyPoint259,0.3698771846146376,0.2591927976719196
http://purl.org/fr/eclats/resource/inventoryEntry_SP26_map0859,http://purl.org/fr/eclats/resource/surveyPoint26,0.7486354320663898,0.5147101292387969
http://purl.org/fr/eclats/resource/inventoryEntry_SP261_map0859,http://purl.org/fr/eclats/resource/surveyPoint261,0.5837158640248172,0.22875731568946753
http://purl.org/fr/eclats/resource/inventoryEntry_SP262_map0859,http://purl.org/fr/eclats/resource/surveyPoint262,0.5483028041705751,0.22365029996816232
http://purl.org/fr/eclats/resource/inventoryEntry_SP263_map0859,http://purl.org/fr/eclats/resource/surveyPoint263,0.5106954435614564,0.23343851711300145
http://purl.org/fr/eclats/resource/inventoryEntry_SP264_map0859,http://purl.org/fr/eclats/resource/surveyPoint264,0.5038927285556118,0.20475548852905123
http://purl.org/fr/eclats/resource/inventoryEntry_SP265_map0859,http://purl.org/fr/eclats/resource/surveyPoint265,0.47319722303561196,0.22385968427226793
http://purl.org/fr/eclats/resource/inventoryEntry_SP266_map0859,http://purl.org/fr/eclats/resource/surveyPoint266,0.4529636930946196,0.23879209246478125
http://purl.org/fr/eclats/resource/inventoryEntry_SP267_map0859,http://purl.org/fr/eclats/resource/surveyPoint267,0.43330483171319534,0.21876230917049988
http://purl.org/fr/eclats/resource/inventoryEntry_SP268_map0859,http://purl.org/fr/eclats/resource/surveyPoint268,0.3906488117346331,0.22655166934049817
http://purl.org/fr/eclats/resource/inventoryEntry_SP27_map0859,http://purl.org/fr/eclats/resource/surveyPoint27,0.7240271652005528,0.497012127246123
http://purl.org/fr/eclats/resource/inventoryEntry_SP270_map0859,http://purl.org/fr/eclats/resource/surveyPoint270,0.6168581952151004,0.195762430486771
http://purl.org/fr/eclats/resource/inventoryEntry_SP271_map0859,http://purl.org/fr/eclats/resource/surveyPoint271,0.5698062922926774,0.19707440229959347
http://purl.org/fr/eclats/resource/inventoryEntry_SP272_map0859,http://purl.org/fr/eclats/resource/surveyPoint272,0.5584725671776004,0.17749796800991519
http://purl.org/fr/eclats/resource/inventoryEntry_SP273_map0859,http://purl.org/fr/eclats/resource/surveyPoint273,0.5242138071706635,0.19037720109522982
http://purl.org/fr/eclats/resource/inventoryEntry_SP274_map0859,http://purl.org/fr/eclats/resource/surveyPoint274,0.523211578183584,0.1701962130834569
http://purl.org/fr/eclats/resource/inventoryEntry_SP275_map0859,http://purl.org/fr/eclats/resource/surveyPoint275,0.5008875741690385,0.16955225142919114
http://purl.org/fr/eclats/resource/inventoryEntry_SP276_map0859,http://purl.org/fr/eclats/resource/surveyPoint276,0.490685628229723,0.16360175445861322
http://purl.org/fr/eclats/resource/inventoryEntry_SP277_map0859,http://purl.org/fr/eclats/resource/surveyPoint277,0.47362653080512246,0.20346756522051973
http://purl.org/fr/eclats/resource/inventoryEntry_SP278_map0859,http://purl.org/fr/eclats/resource/surveyPoint278,0.45173183456008753,0.1901590243656946
http://purl.org/fr/eclats/resource/inventoryEntry_SP279_map0859,http://purl.org/fr/eclats/resource/surveyPoint279,0.41735518946034167,0.19094316570622022
http://purl.org/fr/eclats/resource/inventoryEntry_SP28_map0859,http://purl.org/fr/eclats/resource/surveyPoint28,0.7266334088789776,0.47249486523693235
http://purl.org/fr/eclats/resource/inventoryEntry_SP280_map0859,http://purl.org/fr/eclats/resource/surveyPoint280,0.5964365669134901,0.17009455294787246
http://purl.org/fr/eclats/resource/inventoryEntry_SP281_map0859,http://purl.org/fr/eclats/resource/surveyPoint281,0.5635229712510194,0.148450286235052
http://purl.org/fr/eclats/resource/inventoryEntry_SP282_map0859,http://purl.org/fr/eclats/resource/surveyPoint282,0.543275072136929,0.14040577672420898
http://purl.org/fr/eclats/resource/inventoryEntry_SP283_map0859,http://purl.org/fr/eclats/resource/surveyPoint283,0.5086151140202273,0.13993001533296742
http://purl.org/fr/eclats/resource/inventoryEntry_SP284_map0859,http://purl.org/fr/eclats/resource/surveyPoint284,0.48450991369411445,0.15572239453387127
http://purl.org/fr/eclats/resource/inventoryEntry_SP285_map0859,http://purl.org/fr/eclats/resource/surveyPoint285,0.4757787310748057,0.15976855233306309
http://purl.org/fr/eclats/resource/inventoryEntry_SP286_map0859,http://purl.org/fr/eclats/resource/surveyPoint286,0.468649465333247,0.15571797927530903
http://purl.org/fr/eclats/resource/inventoryEntry_SP287_map0859,http://purl.org/fr/eclats/resource/surveyPoint287,0.4697622310718182,0.14867046293102484
http://purl.org/fr/eclats/resource/inventoryEntry_SP288_map0859,http://purl.org/fr/eclats/resource/surveyPoint288,0.45640904220896394,0.14533216571531127
http://purl.org/fr/eclats/resource/inventoryEntry_SP289_map0859,http://purl.org/fr/eclats/resource/surveyPoint289,0.42784805491897016,0.15423429162388078
http://purl.org/fr/eclats/resource/inventoryEntry_SP290_map0859,http://purl.org/fr/eclats/resource/surveyPoint290,0.6282768931521847,0.1634760581679191
http://purl.org/fr/eclats/resource/inventoryEntry_SP291_map0859,http://purl.org/fr/eclats/resource/surveyPoint291,0.6309600667116253,0.1432628173534669
http://purl.org/fr/eclats/resource/inventoryEntry_SP292_map0859,http://purl.org/fr/eclats/resource/surveyPoint292,0.6034128181680356,0.14737701681127577
http://purl.org/fr/eclats/resource/inventoryEntry_SP293_map0859,http://purl.org/fr/eclats/resource/surveyPoint293,0.6013777460776001,0.12337848994263609
http://purl.org/fr/eclats/resource/inventoryEntry_SP294_map0859,http://purl.org/fr/eclats/resource/surveyPoint294,0.5735401525395973,0.1271637759968236
http://purl.org/fr/eclats/resource/inventoryEntry_SP295_map0859,http://purl.org/fr/eclats/resource/surveyPoint295,0.5366173953096675,0.11816901199147262
http://purl.org/fr/eclats/resource/inventoryEntry_SP296_map0859,http://purl.org/fr/eclats/resource/surveyPoint296,0.4960976868846696,0.13123713302674292
http://purl.org/fr/eclats/resource/inventoryEntry_SP297_map0859,http://purl.org/fr/eclats/resource/surveyPoint297,0.4771806693289594,0.08004990905246834
http://purl.org/fr/eclats/resource/inventoryEntry_SP298_map0859,http://purl.org/fr/eclats/resource/surveyPoint298,0.45363134101607167,0.1024834761234527
http://purl.org/fr/eclats/resource/inventoryEntry_SP299_map0859,http://purl.org/fr/eclats/resource/surveyPoint299,0.43007358639611254,0.11602933459960338
http://purl.org/fr/eclats/resource/inventoryEntry_SP3_map0859,http://purl.org/fr/eclats/resource/surveyPoint3,0.5806329242004029,0.5949917843805196
http://purl.org/fr/eclats/resource/inventoryEntry_SP30_map0859,http://purl.org/fr/eclats/resource/surveyPoint30,0.7826115885663452,0.6245520836518125
http://purl.org/fr/eclats/resource/inventoryEntry_SP303_map0859,http://purl.org/fr/eclats/resource/surveyPoint303,0.41061978186003245,0.5757469960876014
http://purl.org/fr/eclats/resource/inventoryEntry_SP306_map0859,http://purl.org/fr/eclats/resource/surveyPoint306,0.4030882444481789,0.5138252497096145
http://purl.org/fr/eclats/resource/inventoryEntry_SP307_map0859,http://purl.org/fr/eclats/resource/surveyPoint307,0.431081019303213,0.4900269271385221
http://purl.org/fr/eclats/resource/inventoryEntry_SP31_map0859,http://purl.org/fr/eclats/resource/surveyPoint31,0.8065463847925257,0.6046385860791968
http://purl.org/fr/eclats/resource/inventoryEntry_SP311_map0859,http://purl.org/fr/eclats/resource/surveyPoint311,0.39734884059837167,0.45230821822310874
http://purl.org/fr/eclats/resource/inventoryEntry_SP313_map0859,http://purl.org/fr/eclats/resource/surveyPoint313,0.37223702519102114,0.4112732418257735
http://purl.org/fr/eclats/resource/inventoryEntry_SP315_map0859,http://purl.org/fr/eclats/resource/surveyPoint315,0.33509763807943743,0.4467884071623165
http://purl.org/fr/eclats/resource/inventoryEntry_SP316_map0859,http://purl.org/fr/eclats/resource/surveyPoint316,0.36961161255170777,0.48929275610609363
http://purl.org/fr/eclats/resource/inventoryEntry_SP318_map0859,http://purl.org/fr/eclats/resource/surveyPoint318,0.32799203864366033,0.4960010923777491
http://purl.org/fr/eclats/resource/inventoryEntry_SP32_map0859,http://purl.org/fr/eclats/resource/surveyPoint32,0.8031860719146402,0.5820095174305224
http://purl.org/fr/eclats/resource/inventoryEntry_SP321_map0859,http://purl.org/fr/eclats/resource/surveyPoint321,0.3695663874184503,0.36427001702852657
http://purl.org/fr/eclats/resource/inventoryEntry_SP325_map0859,http://purl.org/fr/eclats/resource/surveyPoint325,0.3320310763789973,0.4096830105869912
http://purl.org/fr/eclats/resource/inventoryEntry_SP327_map0859,http://purl.org/fr/eclats/resource/surveyPoint327,0.2887925564027918,0.4096830105869912
http://purl.org/fr/eclats/resource/inventoryEntry_SP328_map0859,http://purl.org/fr/eclats/resource/surveyPoint328,0.2878725878926599,0.45874799779403297
http://purl.org/fr/eclats/resource/inventoryEntry_SP33_map0859,http://purl.org/fr/eclats/resource/surveyPoint33,0.7769920297936008,0.571318618281181
http://purl.org/fr/eclats/resource/inventoryEntry_SP330_map0859,http://purl.org/fr/eclats/resource/surveyPoint330,0.36060413679321107,0.32336228859619137
http://purl.org/fr/eclats/resource/inventoryEntry_SP334_map0859,http://purl.org/fr/eclats/resource/surveyPoint334,0.32631355335380874,0.37942482510577946
http://purl.org/fr/eclats/resource/inventoryEntry_SP336_map0859,http://purl.org/fr/eclats/resource/surveyPoint336,0.2827302285931039,0.37726111394744655
http://purl.org/fr/eclats/resource/inventoryEntry_SP338_map0859,http://purl.org/fr/eclats/resource/surveyPoint338,0.2590469079085227,0.4090696982469032
http://purl.org/fr/eclats/resource/inventoryEntry_SP339_map0859,http://purl.org/fr/eclats/resource/surveyPoint339,0.24902873410618928,0.446993941150552
http://purl.org/fr/eclats/resource/inventoryEntry_SP340_map0859,http://purl.org/fr/eclats/resource/surveyPoint340,0.3702481065274947,0.29443037939334055
http://purl.org/fr/eclats/resource/inventoryEntry_SP343_map0859,http://purl.org/fr/eclats/resource/surveyPoint343,0.30962206727524094,0.32873216368198094
http://purl.org/fr/eclats/resource/inventoryEntry_SP345_map0859,http://purl.org/fr/eclats/resource/surveyPoint345,0.283348431781199,0.34233263382007323
http://purl.org/fr/eclats/resource/inventoryEntry_SP347_map0859,http://purl.org/fr/eclats/resource/surveyPoint347,0.2460433023419277,0.3809021577896957
http://purl.org/fr/eclats/resource/inventoryEntry_SP349_map0859,http://purl.org/fr/eclats/resource/surveyPoint349,0.22452983139621807,0.4228163339425437
http://purl.org/fr/eclats/resource/inventoryEntry_SP35_map0859,http://purl.org/fr/eclats/resource/surveyPoint35,0.7712867874089331,0.5211783237219642
http://purl.org/fr/eclats/resource/inventoryEntry_SP351_map0859,http://purl.org/fr/eclats/resource/surveyPoint351,0.336494212457502,0.2992523642604823
http://purl.org/fr/eclats/resource/inventoryEntry_SP354_map0859,http://purl.org/fr/eclats/resource/surveyPoint354,0.2879849556919123,0.3111133728212705
http://purl.org/fr/eclats/resource/inventoryEntry_SP355_map0859,http://purl.org/fr/eclats/resource/surveyPoint355,0.2607840154157277,0.32564114774150543
http://purl.org/fr/eclats/resource/inventoryEntry_SP356_map0859,http://purl.org/fr/eclats/resource/surveyPoint356,0.24965635803001587,0.34666005613673895
http://purl.org/fr/eclats/resource/inventoryEntry_SP358_map0859,http://purl.org/fr/eclats/resource/surveyPoint358,0.21228940827193504,0.37867662631255333
http://purl.org/fr/eclats/resource/inventoryEntry_SP359_map0859,http://purl.org/fr/eclats/resource/surveyPoint359,0.19040501541336838,0.4038993163868336
http://purl.org/fr/eclats/resource/inventoryEntry_SP36_map0859,http://purl.org/fr/eclats/resource/surveyPoint36,0.7706374552538025,0.49735894022108135
http://purl.org/fr/eclats/resource/inventoryEntry_SP361_map0859,http://purl.org/fr/eclats/resource/surveyPoint361,0.3374412107395206,0.2703119624069937
http://purl.org/fr/eclats/resource/inventoryEntry_SP363_map0859,http://purl.org/fr/eclats/resource/surveyPoint363,0.30622194974071787,0.28823985486175163
http://purl.org/fr/eclats/resource/inventoryEntry_SP367_map0859,http://purl.org/fr/eclats/resource/surveyPoint367,0.21874619862526068,0.34356904019626344
http://purl.org/fr/eclats/resource/inventoryEntry_SP368_map0859,http://purl.org/fr/eclats/resource/surveyPoint368,0.18447026480765538,0.3742255633582686
http://purl.org/fr/eclats/resource/inventoryEntry_SP370_map0859,http://purl.org/fr/eclats/resource/surveyPoint370,0.3479927917560709,0.23953393629049533
http://purl.org/fr/eclats/resource/inventoryEntry_SP371_map0859,http://purl.org/fr/eclats/resource/surveyPoint371,0.31704050553238217,0.24558383488318952
http://purl.org/fr/eclats/resource/inventoryEntry_SP376_map0859,http://purl.org/fr/eclats/resource/surveyPoint376,0.23420127832763826,0.2968946994950831
http://purl.org/fr/eclats/resource/inventoryEntry_SP377_map0859,http://purl.org/fr/eclats/resource/surveyPoint377,0.19927279820026492,0.3250229445534103
http://purl.org/fr/eclats/resource/inventoryEntry_SP378_map0859,http://purl.org/fr/eclats/resource/surveyPoint378,0.17334260742194352,0.34603549798113187
http://purl.org/fr/eclats/resource/inventoryEntry_SP38_map0859,http://purl.org/fr/eclats/resource/surveyPoint38,0.754359535659863,0.4758935517455569
http://purl.org/fr/eclats/resource/inventoryEntry_SP386_map0859,http://purl.org/fr/eclats/resource/surveyPoint386,0.18474502328002998,0.2839124325450859
http://purl.org/fr/eclats/resource/inventoryEntry_SP387_map0859,http://purl.org/fr/eclats/resource/surveyPoint387,0.16836263879550972,0.31605899832603135
http://purl.org/fr/eclats/resource/inventoryEntry_SP393_map0859,http://purl.org/fr/eclats/resource/surveyPoint393,0.1844359216859824,0.24960215560580767
http://purl.org/fr/eclats/resource/inventoryEntry_SP394_map0859,http://purl.org/fr/eclats/resource/surveyPoint394,0.14858013677646642,0.24805664763556992
http://purl.org/fr/eclats/resource/inventoryEntry_SP395_map0859,http://purl.org/fr/eclats/resource/surveyPoint395,0.15939869256813072,0.2839124325450859
http://purl.org/fr/eclats/resource/inventoryEntry_SP396_map0859,http://purl.org/fr/eclats/resource/surveyPoint396,0.11890638374790144,0.23445617749747766
http://purl.org/fr/eclats/resource/inventoryEntry_SP397_map0859,http://purl.org/fr/eclats/resource/surveyPoint397,0.12008691414452795,0.30136461283727156
http://purl.org/fr/eclats/resource/inventoryEntry_SP398_map0859,http://purl.org/fr/eclats/resource/surveyPoint398,0.11148794549076019,0.2746393847236594
http://purl.org/fr/eclats/resource/inventoryEntry_SP399_map0859,http://purl.org/fr/eclats/resource/surveyPoint399,0.07408665261100644,0.27062106400104124
http://purl.org/fr/eclats/resource/inventoryEntry_SP4_map0859,http://purl.org/fr/eclats/resource/surveyPoint4,0.6146520342645877,0.6195199538809814
http://purl.org/fr/eclats/resource/inventoryEntry_SP40_map0859,http://purl.org/fr/eclats/resource/surveyPoint40,0.8209903237317793,0.6261492250605128
http://purl.org/fr/eclats/resource/inventoryEntry_SP400_map0859,http://purl.org/fr/eclats/resource/surveyPoint400,0.4703903268346923,0.6277535321274085
http://purl.org/fr/eclats/resource/inventoryEntry_SP401_map0859,http://purl.org/fr/eclats/resource/surveyPoint401,0.4404434352288317,0.6113628465982749
http://purl.org/fr/eclats/resource/inventoryEntry_SP404_map0859,http://purl.org/fr/eclats/resource/surveyPoint404,0.391887569826737,0.60976074951648
http://purl.org/fr/eclats/resource/inventoryEntry_SP405_map0859,http://purl.org/fr/eclats/resource/surveyPoint405,0.3717222696247822,0.6301801324549873
http://purl.org/fr/eclats/resource/inventoryEntry_SP406_map0859,http://purl.org/fr/eclats/resource/surveyPoint406,0.36221592835341776,0.5529027776038966
http://purl.org/fr/eclats/resource/inventoryEntry_SP407_map0859,http://purl.org/fr/eclats/resource/surveyPoint407,0.34,0.59
http://purl.org/fr/eclats/resource/inventoryEntry_SP408_map0859,http://purl.org/fr/eclats/resource/surveyPoint408,0.3324702798591487,0.5311301895307718
http://purl.org/fr/eclats/resource/inventoryEntry_SP409_map0859,http://purl.org/fr/eclats/resource/surveyPoint409,0.3217373139076083,0.6295668201148994
http://purl.org/fr/eclats/resource/inventoryEntry_SP41_map0859,http://purl.org/fr/eclats/resource/surveyPoint41,0.8243286209474928,0.5868315022976642
http://purl.org/fr/eclats/resource/inventoryEntry_SP411_map0859,http://purl.org/fr/eclats/resource/surveyPoint411,0.27764931739476856,0.4998342945032992
http://purl.org/fr/eclats/resource/inventoryEntry_SP412_map0859,http://purl.org/fr/eclats/resource/surveyPoint412,0.2809368700473146,0.5350356348043253
http://purl.org/fr/eclats/resource/inventoryEntry_SP414_map0859,http://purl.org/fr/eclats/resource/surveyPoint414,0.3045645683851437,0.5660889929157891
http://purl.org/fr/eclats/resource/inventoryEntry_SP415_map0859,http://purl.org/fr/eclats/resource/surveyPoint415,0.2599820317609738,0.5674900794673164
http://purl.org/fr/eclats/resource/inventoryEntry_SP416_map0859,http://purl.org/fr/eclats/resource/surveyPoint416,0.2901517283930753,0.6016611086408944
http://purl.org/fr/eclats/resource/inventoryEntry_SP417_map0859,http://purl.org/fr/eclats/resource/surveyPoint417,0.24132711474996324,0.6019888985972676
http://purl.org/fr/eclats/resource/inventoryEntry_SP418_map0859,http://purl.org/fr/eclats/resource/surveyPoint418,0.2720590143604785,0.6314067571351634
http://purl.org/fr/eclats/resource/inventoryEntry_SP419_map0859,http://purl.org/fr/eclats/resource/surveyPoint419,0.23519399134908303,0.6288213134761186
http://purl.org/fr/eclats/resource/inventoryEntry_SP42_map0859,http://purl.org/fr/eclats/resource/surveyPoint42,0.8269719814906245,0.5705198519298588
http://purl.org/fr/eclats/resource/inventoryEntry_SP421_map0859,http://purl.org/fr/eclats/resource/surveyPoint421,0.2353046233304779,0.4863116639134006
http://purl.org/fr/eclats/resource/inventoryEntry_SP423_map0859,http://purl.org/fr/eclats/resource/surveyPoint423,0.23621617858256297,0.526091496511375
http://purl.org/fr/eclats/resource/inventoryEntry_SP425_map0859,http://purl.org/fr/eclats/resource/surveyPoint425,0.22165001050547245,0.5710677347844966
http://purl.org/fr/eclats/resource/inventoryEntry_SP427_map0859,http://purl.org/fr/eclats/resource/surveyPoint427,0.19839525094380173,0.5999445241303075
http://purl.org/fr/eclats/resource/inventoryEntry_SP429_map0859,http://purl.org/fr/eclats/resource/surveyPoint429,0.1981397041354317,0.6267769390091584
http://purl.org/fr/eclats/resource/inventoryEntry_SP43_map0859,http://purl.org/fr/eclats/resource/surveyPoint43,0.8050629615686414,0.558424247181264
http://purl.org/fr/eclats/resource/inventoryEntry_SP433_map0859,http://purl.org/fr/eclats/resource/surveyPoint433,0.20822732369191238,0.5096797444233955
http://purl.org/fr/eclats/resource/inventoryEntry_SP435_map0859,http://purl.org/fr/eclats/resource/surveyPoint435,0.1951076982912556,0.5527324838358911
http://purl.org/fr/eclats/resource/inventoryEntry_SP44_map0859,http://purl.org/fr/eclats/resource/surveyPoint44,0.7962765317040962,0.5293263300973804
http://purl.org/fr/eclats/resource/inventoryEntry_SP440_map0859,http://purl.org/fr/eclats/resource/surveyPoint440,0.21082377708191188,0.452928691756265
http://purl.org/fr/eclats/resource/inventoryEntry_SP443_map0859,http://purl.org/fr/eclats/resource/surveyPoint443,0.19280777701592552,0.4852681264262087
http://purl.org/fr/eclats/resource/inventoryEntry_SP445_map0859,http://purl.org/fr/eclats/resource/surveyPoint445,0.16623090894544457,0.5090339796046195
http://purl.org/fr/eclats/resource/inventoryEntry_SP446_map0859,http://purl.org/fr/eclats/resource/surveyPoint446,0.1585645046943443,0.549921468943821
http://purl.org/fr/eclats/resource/inventoryEntry_SP447_map0859,http://purl.org/fr/eclats/resource/surveyPoint447,0.17130728925658073,0.5741342964849366
http://purl.org/fr/eclats/resource/inventoryEntry_SP448_map0859,http://purl.org/fr/eclats/resource/surveyPoint448,0.1618520573468904,0.613999598590658
http://purl.org/fr/eclats/resource/inventoryEntry_SP45_map0859,http://purl.org/fr/eclats/resource/surveyPoint45,0.7890619136952942,0.5091649038826198
http://purl.org/fr/eclats/resource/inventoryEntry_SP450_map0859,http://purl.org/fr/eclats/resource/surveyPoint450,0.18261565524337006,0.42504186541968614
http://purl.org/fr/eclats/resource/inventoryEntry_SP451_map0859,http://purl.org/fr/eclats/resource/surveyPoint451,0.17890643611479942,0.45100639931968045
http://purl.org/fr/eclats/resource/inventoryEntry_SP453_map0859,http://purl.org/fr/eclats/resource/surveyPoint453,0.14272060257540373,0.48399039238435865
http://purl.org/fr/eclats/resource/inventoryEntry_SP458_map0859,http://purl.org/fr/eclats/resource/surveyPoint458,0.12249784885790901,0.5991778837051975
http://purl.org/fr/eclats/resource/inventoryEntry_SP459_map0859,http://purl.org/fr/eclats/resource/surveyPoint459,0.12863097225878922,0.6265213922007885
http://purl.org/fr/eclats/resource/inventoryEntry_SP46_map0859,http://purl.org/fr/eclats/resource/surveyPoint46,0.7939130240932137,0.48371521052340105
http://purl.org/fr/eclats/resource/inventoryEntry_SP460_map0859,http://purl.org/fr/eclats/resource/surveyPoint460,0.15887665282051808,0.39573903430397817
http://purl.org/fr/eclats/resource/inventoryEntry_SP461_map0859,http://purl.org/fr/eclats/resource/surveyPoint461,0.1547965117790904,0.424670943506829
http://purl.org/fr/eclats/resource/inventoryEntry_SP462_map0859,http://purl.org/fr/eclats/resource/surveyPoint462,0.13958871335195083,0.4513773212325375
http://purl.org/fr/eclats/resource/inventoryEntry_SP463_map0859,http://purl.org/fr/eclats/resource/surveyPoint463,0.12363907109909719,0.4751163236553893
http://purl.org/fr/eclats/resource/inventoryEntry_SP465_map0859,http://purl.org/fr/eclats/resource/surveyPoint465,0.10360928780481585,0.5044191547710972
http://purl.org/fr/eclats/resource/inventoryEntry_SP466_map0859,http://purl.org/fr/eclats/resource/surveyPoint466,0.11307717280448266,0.5379107689504306
http://purl.org/fr/eclats/resource/inventoryEntry_SP467_map0859,http://purl.org/fr/eclats/resource/surveyPoint467,0.12355459194765303,0.5678097455297216
http://purl.org/fr/eclats/resource/inventoryEntry_SP47_map0859,http://purl.org/fr/eclats/resource/surveyPoint47,0.7809307571432166,0.47258755313768924
http://purl.org/fr/eclats/resource/inventoryEntry_SP470_map0859,http://purl.org/fr/eclats/resource/surveyPoint470,0.1340248846590949,0.38424045500540926
http://purl.org/fr/eclats/resource/inventoryEntry_SP471_map0859,http://purl.org/fr/eclats/resource/surveyPoint471,0.1195393747483223,0.4087027461668123
http://purl.org/fr/eclats/resource/inventoryEntry_SP475_map0859,http://purl.org/fr/eclats/resource/surveyPoint475,0.0802412072948209,0.5122085149410955
http://purl.org/fr/eclats/resource/inventoryEntry_SP476_map0859,http://purl.org/fr/eclats/resource/surveyPoint476,0.08632912731804196,0.5414192464368978
http://purl.org/fr/eclats/resource/inventoryEntry_SP478_map0859,http://purl.org/fr/eclats/resource/surveyPoint478,0.08163133805544659,0.5866551114118931
http://purl.org/fr/eclats/resource/inventoryEntry_SP479_map0859,http://purl.org/fr/eclats/resource/surveyPoint479,0.09029895100328786,0.6170661602910981
http://purl.org/fr/eclats/resource/inventoryEntry_SP48_map0859,http://purl.org/fr/eclats/resource/surveyPoint48,0.7838981324460731,0.44847762880198017
http://purl.org/fr/eclats/resource/inventoryEntry_SP481_map0859,http://purl.org/fr/eclats/resource/surveyPoint481,0.0943362399833893,0.37941847013826735
http://purl.org/fr/eclats/resource/inventoryEntry_SP482_map0859,http://purl.org/fr/eclats/resource/surveyPoint482,0.08660150888661519,0.40514189580338444
http://purl.org/fr/eclats/resource/inventoryEntry_SP483_map0859,http://purl.org/fr/eclats/resource/surveyPoint483,0.09841638102481698,0.43320214750254143
http://purl.org/fr/eclats/resource/inventoryEntry_SP484_map0859,http://purl.org/fr/eclats/resource/surveyPoint484,0.08988517702910453,0.4599085252282499
http://purl.org/fr/eclats/resource/inventoryEntry_SP485_map0859,http://purl.org/fr/eclats/resource/surveyPoint485,0.06280787739053903,0.4554574622739651
http://purl.org/fr/eclats/resource/inventoryEntry_SP486_map0859,http://purl.org/fr/eclats/resource/surveyPoint486,0.07467737860196497,0.48513121530253
http://purl.org/fr/eclats/resource/inventoryEntry_SP49_map0859,http://purl.org/fr/eclats/resource/surveyPoint49,0.753482535591794,0.4347535180262689
http://purl.org/fr/eclats/resource/inventoryEntry_SP493_map0859,http://purl.org/fr/eclats/resource/surveyPoint493,0.05188321784319416,0.39712998248567194
http://purl.org/fr/eclats/resource/inventoryEntry_SP494_map0859,http://purl.org/fr/eclats/resource/surveyPoint494,0.06167555634262062,0.42784231687023666
http://purl.org/fr/eclats/resource/inventoryEntry_SP5_map0859,http://purl.org/fr/eclats/resource/surveyPoint5,0.6111027730372265,0.5934920382136656
http://purl.org/fr/eclats/resource/inventoryEntry_SP50_map0859,http://purl.org/fr/eclats/resource/surveyPoint50,0.8465430361052568,0.6249435695905254
http://purl.org/fr/eclats/resource/inventoryEntry_SP503_map0859,http://purl.org/fr/eclats/resource/surveyPoint503,0.4115281555017777,0.6463851242066126
http://purl.org/fr/eclats/resource/inventoryEntry_SP504_map0859,http://purl.org/fr/eclats/resource/surveyPoint504,0.4211445208819207,0.6853250740824791
http://purl.org/fr/eclats/resource/inventoryEntry_SP505_map0859,http://purl.org/fr/eclats/resource/surveyPoint505,0.39410817003799503,0.6669788728602686
http://purl.org/fr/eclats/resource/inventoryEntry_SP506_map0859,http://purl.org/fr/eclats/resource/surveyPoint506,0.38786270459010974,0.7046254828925497
http://purl.org/fr/eclats/resource/inventoryEntry_SP507_map0859,http://purl.org/fr/eclats/resource/surveyPoint507,0.34473652666090926,0.6657522481800926
http://purl.org/fr/eclats/resource/inventoryEntry_SP508_map0859,http://purl.org/fr/eclats/resource/surveyPoint508,0.3073244739155399,0.6586991562690804
http://purl.org/fr/eclats/resource/inventoryEntry_SP509_map0859,http://purl.org/fr/eclats/resource/surveyPoint509,0.3410772396253368,0.700587650787598
http://purl.org/fr/eclats/resource/inventoryEntry_SP51_map0859,http://purl.org/fr/eclats/resource/surveyPoint51,0.8347121653473861,0.6146901482670374
http://purl.org/fr/eclats/resource/inventoryEntry_SP510_map0859,http://purl.org/fr/eclats/resource/surveyPoint510,0.24660655224682576,0.6666722166902246
http://purl.org/fr/eclats/resource/inventoryEntry_SP511_map0859,http://purl.org/fr/eclats/resource/surveyPoint511,0.27512557606091875,0.6694321222206208
http://purl.org/fr/eclats/resource/inventoryEntry_SP512_map0859,http://purl.org/fr/eclats/resource/surveyPoint512,0.24078008501598955,0.7007110515651098
http://purl.org/fr/eclats/resource/inventoryEntry_SP513_map0859,http://purl.org/fr/eclats/resource/surveyPoint513,0.27481891989087476,0.7105240490065182
http://purl.org/fr/eclats/resource/inventoryEntry_SP514_map0859,http://purl.org/fr/eclats/resource/surveyPoint514,0.30241797519483576,0.6961112090144497
http://purl.org/fr/eclats/resource/inventoryEntry_SP515_map0859,http://purl.org/fr/eclats/resource/surveyPoint515,0.24822299331329623,0.7317052613854563
http://purl.org/fr/eclats/resource/inventoryEntry_SP517_map0859,http://purl.org/fr/eclats/resource/surveyPoint517,0.2956473956992568,0.7339901343270672
http://purl.org/fr/eclats/resource/inventoryEntry_SP518_map0859,http://purl.org/fr/eclats/resource/surveyPoint518,0.26402752851448263,0.7617846791467859
http://purl.org/fr/eclats/resource/inventoryEntry_SP519_map0859,http://purl.org/fr/eclats/resource/surveyPoint519,0.32579489574290293,0.7362981441253503
http://purl.org/fr/eclats/resource/inventoryEntry_SP52_map0859,http://purl.org/fr/eclats/resource/surveyPoint52,0.8498374072680487,0.5895963652806646
http://purl.org/fr/eclats/resource/inventoryEntry_SP521_map0859,http://purl.org/fr/eclats/resource/surveyPoint521,0.21655424758251268,0.6571658754188603
http://purl.org/fr/eclats/resource/inventoryEntry_SP523_map0859,http://purl.org/fr/eclats/resource/surveyPoint523,0.19631494035960798,0.705004237945726
http://purl.org/fr/eclats/resource/inventoryEntry_SP525_map0859,http://purl.org/fr/eclats/resource/surveyPoint525,0.20621109801726673,0.7320119175555003
http://purl.org/fr/eclats/resource/inventoryEntry_SP527_map0859,http://purl.org/fr/eclats/resource/surveyPoint527,0.22369049970977536,0.7642108154101215
http://purl.org/fr/eclats/resource/inventoryEntry_SP528_map0859,http://purl.org/fr/eclats/resource/surveyPoint528,0.23350349715118376,0.7951830885845665
http://purl.org/fr/eclats/resource/inventoryEntry_SP529_map0859,http://purl.org/fr/eclats/resource/surveyPoint529,0.2722071914839841,0.790143590579039
http://purl.org/fr/eclats/resource/inventoryEntry_SP53_map0859,http://purl.org/fr/eclats/resource/surveyPoint53,0.8553584802883885,0.5458221434765428
http://purl.org/fr/eclats/resource/inventoryEntry_SP531_map0859,http://purl.org/fr/eclats/resource/surveyPoint531,0.18190210036753948,0.6675921852003567
#http://purl.org/fr/eclats/resource/inventoryEntry_SP533_map0859,http://purl.org/fr/eclats/resource/surveyPoint533,0.16963585356577904,0.7007110515651098
#http://purl.org/fr/eclats/resource/inventoryEntry_SP535_map0859,http://purl.org/fr/eclats/resource/surveyPoint535,0.16833174423377412,0.7319950804893692
http://purl.org/fr/eclats/resource/inventoryEntry_SP536_map0859,http://purl.org/fr/eclats/resource/surveyPoint536,0.18535847845427406,0.7553177864788452
http://purl.org/fr/eclats/resource/inventoryEntry_SP54_map0859,http://purl.org/fr/eclats/resource/surveyPoint54,0.827542528884426,0.5406231684946529
http://purl.org/fr/eclats/resource/inventoryEntry_SP540_map0859,http://purl.org/fr/eclats/resource/surveyPoint540,0.15341901267068012,0.6556537283549695
http://purl.org/fr/eclats/resource/inventoryEntry_SP548_map0859,http://purl.org/fr/eclats/resource/surveyPoint548,0.1905716333450222,0.7994762749651828
http://purl.org/fr/eclats/resource/inventoryEntry_SP549_map0859,http://purl.org/fr/eclats/resource/surveyPoint549,0.20870371745253014,0.8271707234802577
http://purl.org/fr/eclats/resource/inventoryEntry_SP55_map0859,http://purl.org/fr/eclats/resource/surveyPoint55,0.8184855997596912,0.5138787924302916
http://purl.org/fr/eclats/resource/inventoryEntry_SP56_map0859,http://purl.org/fr/eclats/resource/surveyPoint56,0.8340629129242211,0.4941606745005069
http://purl.org/fr/eclats/resource/inventoryEntry_SP57_map0859,http://purl.org/fr/eclats/resource/surveyPoint57,0.8253741958663897,0.4648031010332026
http://purl.org/fr/eclats/resource/inventoryEntry_SP58_map0859,http://purl.org/fr/eclats/resource/surveyPoint58,0.8060553462384177,0.45514367621921664
http://purl.org/fr/eclats/resource/inventoryEntry_SP59_map0859,http://purl.org/fr/eclats/resource/surveyPoint59,0.8005101208822406,0.4268809147264428
http://purl.org/fr/eclats/resource/inventoryEntry_SP6_map0859,http://purl.org/fr/eclats/resource/surveyPoint6,0.6365391451666487,0.6171537797294072
http://purl.org/fr/eclats/resource/inventoryEntry_SP60_map0859,http://purl.org/fr/eclats/resource/surveyPoint60,0.8714357038803398,0.6246655374090846
http://purl.org/fr/eclats/resource/inventoryEntry_SP600_map0859,http://purl.org/fr/eclats/resource/surveyPoint600,0.4699140121552041,0.6508928557864728
http://purl.org/fr/eclats/resource/inventoryEntry_SP601_map0859,http://purl.org/fr/eclats/resource/surveyPoint601,0.47338081227659906,0.6845338792794589
http://purl.org/fr/eclats/resource/inventoryEntry_SP602_map0859,http://purl.org/fr/eclats/resource/surveyPoint602,0.45972882520616554,0.7064285755244937
http://purl.org/fr/eclats/resource/inventoryEntry_SP603_map0859,http://purl.org/fr/eclats/resource/surveyPoint603,0.4271413526516703,0.7243044805858512
http://purl.org/fr/eclats/resource/inventoryEntry_SP604_map0859,http://purl.org/fr/eclats/resource/surveyPoint604,0.4331366638498349,0.7623708783898574
http://purl.org/fr/eclats/resource/inventoryEntry_SP605_map0859,http://purl.org/fr/eclats/resource/surveyPoint605,0.391160362033173,0.7452933917799746
http://purl.org/fr/eclats/resource/inventoryEntry_SP606_map0859,http://purl.org/fr/eclats/resource/surveyPoint606,0.36057652000745033,0.7371976688908126
http://purl.org/fr/eclats/resource/inventoryEntry_SP607_map0859,http://purl.org/fr/eclats/resource/surveyPoint607,0.3686722428966122,0.7671818277395605
http://purl.org/fr/eclats/resource/inventoryEntry_SP608_map0859,http://purl.org/fr/eclats/resource/surveyPoint608,0.3926580494040255,0.7841434664629822
http://purl.org/fr/eclats/resource/inventoryEntry_SP609_map0859,http://purl.org/fr/eclats/resource/surveyPoint609,0.4266968842789106,0.804689429855931
http://purl.org/fr/eclats/resource/inventoryEntry_SP61_map0859,http://purl.org/fr/eclats/resource/surveyPoint61,0.8630485462810044,0.6059624031623859
http://purl.org/fr/eclats/resource/inventoryEntry_SP610_map0859,http://purl.org/fr/eclats/resource/surveyPoint610,0.3102031331415541,0.7665821445625856
http://purl.org/fr/eclats/resource/inventoryEntry_SP611_map0859,http://purl.org/fr/eclats/resource/surveyPoint611,0.3165117532974665,0.8053410856197103
http://purl.org/fr/eclats/resource/inventoryEntry_SP612_map0859,http://purl.org/fr/eclats/resource/surveyPoint612,0.34788624857759987,0.7915032145440385
http://purl.org/fr/eclats/resource/inventoryEntry_SP614_map0859,http://purl.org/fr/eclats/resource/surveyPoint614,0.3754853038815608,0.806836023046239
http://purl.org/fr/eclats/resource/inventoryEntry_SP615_map0859,http://purl.org/fr/eclats/resource/surveyPoint615,0.3564542794072599,0.8376801776778745
http://purl.org/fr/eclats/resource/inventoryEntry_SP616_map0859,http://purl.org/fr/eclats/resource/surveyPoint616,0.36260574473971235,0.864794039184557
http://purl.org/fr/eclats/resource/inventoryEntry_SP617_map0859,http://purl.org/fr/eclats/resource/surveyPoint617,0.40124442216525774,0.8329017974999801
http://purl.org/fr/eclats/resource/inventoryEntry_SP618_map0859,http://purl.org/fr/eclats/resource/surveyPoint618,0.4055376085458739,0.862034133654161
http://purl.org/fr/eclats/resource/inventoryEntry_SP619_map0859,http://purl.org/fr/eclats/resource/surveyPoint619,0.3942860120375041,0.8861609271082395
http://purl.org/fr/eclats/resource/inventoryEntry_SP62_map0859,http://purl.org/fr/eclats/resource/surveyPoint62,0.8859016584817652,0.5994428473348044
http://purl.org/fr/eclats/resource/inventoryEntry_SP621_map0859,http://purl.org/fr/eclats/resource/surveyPoint621,0.2799347313351729,0.8177051493816124
http://purl.org/fr/eclats/resource/inventoryEntry_SP624_map0859,http://purl.org/fr/eclats/resource/surveyPoint624,0.3163006630630667,0.8559010102532807
http://purl.org/fr/eclats/resource/inventoryEntry_SP626_map0859,http://purl.org/fr/eclats/resource/surveyPoint626,0.3338898630417886,0.8846636199731023
#http://purl.org/fr/eclats/resource/inventoryEntry_SP628_map0859,http://purl.org/fr/eclats/resource/surveyPoint628,0.3685092415751144,0.8988822932992897
http://purl.org/fr/eclats/resource/inventoryEntry_SP63_map0859,http://purl.org/fr/eclats/resource/surveyPoint63,0.878483220224624,0.5801549078662371
http://purl.org/fr/eclats/resource/inventoryEntry_SP630_map0859,http://purl.org/fr/eclats/resource/surveyPoint630,0.24178321374237202,0.8344350783502
http://purl.org/fr/eclats/resource/inventoryEntry_SP632_map0859,http://purl.org/fr/eclats/resource/surveyPoint632,0.2686694266977552,0.850353343033824
http://purl.org/fr/eclats/resource/inventoryEntry_SP634_map0859,http://purl.org/fr/eclats/resource/surveyPoint634,0.2878337255287034,0.8692085402707247
http://purl.org/fr/eclats/resource/inventoryEntry_SP635_map0859,http://purl.org/fr/eclats/resource/surveyPoint635,0.27948798248941953,0.8979549885171471
http://purl.org/fr/eclats/resource/inventoryEntry_SP636_map0859,http://purl.org/fr/eclats/resource/surveyPoint636,0.30495438477143827,0.9089525276708947
http://purl.org/fr/eclats/resource/inventoryEntry_SP637_map0859,http://purl.org/fr/eclats/resource/surveyPoint637,0.32243378646394694,0.9245919923431393
http://purl.org/fr/eclats/resource/inventoryEntry_SP638_map0859,http://purl.org/fr/eclats/resource/surveyPoint638,0.36047260012987803,0.9260832335754743
http://purl.org/fr/eclats/resource/inventoryEntry_SP64_map0859,http://purl.org/fr/eclats/resource/surveyPoint64,0.867355562838912,0.5642052656133834
http://purl.org/fr/eclats/resource/inventoryEntry_SP641_map0859,http://purl.org/fr/eclats/resource/surveyPoint641,0.21952227324419446,0.8756996737457233
http://purl.org/fr/eclats/resource/inventoryEntry_SP643_map0859,http://purl.org/fr/eclats/resource/surveyPoint643,0.2550689565596629,0.8868273311314352
http://purl.org/fr/eclats/resource/inventoryEntry_SP645_map0859,http://purl.org/fr/eclats/resource/surveyPoint645,0.2593963788763286,0.9276287415457121
http://purl.org/fr/eclats/resource/inventoryEntry_SP647_map0859,http://purl.org/fr/eclats/resource/surveyPoint647,0.3025011354110862,0.9386981761651638
http://purl.org/fr/eclats/resource/inventoryEntry_SP648_map0859,http://purl.org/fr/eclats/resource/surveyPoint648,0.3325534400753991,0.9607774204083327
http://purl.org/fr/eclats/resource/inventoryEntry_SP649_map0859,http://purl.org/fr/eclats/resource/surveyPoint649,0.3696588366507244,0.9647639506189047
http://purl.org/fr/eclats/resource/inventoryEntry_SP65_map0859,http://purl.org/fr/eclats/resource/surveyPoint65,0.8565415673641755,0.49278040624542224
http://purl.org/fr/eclats/resource/inventoryEntry_SP650_map0859,http://purl.org/fr/eclats/resource/surveyPoint650,0.18706660586920154,0.8534443589742996
http://purl.org/fr/eclats/resource/inventoryEntry_SP653_map0859,http://purl.org/fr/eclats/resource/surveyPoint653,0.21553496598703248,0.9148033524914898
http://purl.org/fr/eclats/resource/inventoryEntry_SP656_map0859,http://purl.org/fr/eclats/resource/surveyPoint656,0.2779686418075653,0.9537243284973203
http://purl.org/fr/eclats/resource/inventoryEntry_SP657_map0859,http://purl.org/fr/eclats/resource/surveyPoint657,0.29617946856798727,0.9709029647123693
http://purl.org/fr/eclats/resource/inventoryEntry_SP658_map0859,http://purl.org/fr/eclats/resource/surveyPoint658,0.330100190715047,0.9859232263519415
http://purl.org/fr/eclats/resource/inventoryEntry_SP659_map0859,http://purl.org/fr/eclats/resource/surveyPoint659,0.3604591515494041,0.9945095991131738
http://purl.org/fr/eclats/resource/inventoryEntry_SP66_map0859,http://purl.org/fr/eclats/resource/surveyPoint66,0.849180389108916,0.46924925592197564
http://purl.org/fr/eclats/resource/inventoryEntry_SP662_map0859,http://purl.org/fr/eclats/resource/surveyPoint662,0.17655715167158478,0.8970276837350044
http://purl.org/fr/eclats/resource/inventoryEntry_SP664_map0859,http://purl.org/fr/eclats/resource/surveyPoint664,0.23334458480987758,0.9468484131069802
http://purl.org/fr/eclats/resource/inventoryEntry_SP665_map0859,http://purl.org/fr/eclats/resource/surveyPoint665,0.24301399439180843,0.9761576918111776
http://purl.org/fr/eclats/resource/inventoryEntry_SP667_map0859,http://purl.org/fr/eclats/resource/surveyPoint667,0.28022499324042294,0.9975925914631201
http://purl.org/fr/eclats/resource/inventoryEntry_SP668_map0859,http://purl.org/fr/eclats/resource/surveyPoint668,0.3150740383828905,1.0110690322955505
http://purl.org/fr/eclats/resource/inventoryEntry_SP669_map0859,http://purl.org/fr/eclats/resource/surveyPoint669,0.3488015539508199,1.0258431206313416
http://purl.org/fr/eclats/resource/inventoryEntry_SP67_map0859,http://purl.org/fr/eclats/resource/surveyPoint67,0.825070464773207,0.44365564393483836
http://purl.org/fr/eclats/resource/inventoryEntry_SP672_map0859,http://purl.org/fr/eclats/resource/surveyPoint672,0.1769335438961994,0.9383481192706725
http://purl.org/fr/eclats/resource/inventoryEntry_SP674_map0859,http://purl.org/fr/eclats/resource/surveyPoint674,0.20964679593289862,0.9584397228837633
http://purl.org/fr/eclats/resource/inventoryEntry_SP675_map0859,http://purl.org/fr/eclats/resource/surveyPoint675,0.2359204314269405,1.0004260227418893
http://purl.org/fr/eclats/resource/inventoryEntry_SP676_map0859,http://purl.org/fr/eclats/resource/surveyPoint676,0.2616788975975698,1.0233510576337492
http://purl.org/fr/eclats/resource/inventoryEntry_SP678_map0859,http://purl.org/fr/eclats/resource/surveyPoint678,0.3015765037640422,1.042402553813718
http://purl.org/fr/eclats/resource/inventoryEntry_SP679_map0859,http://purl.org/fr/eclats/resource/surveyPoint679,0.34941486629090796,1.0491489895546864
http://purl.org/fr/eclats/resource/inventoryEntry_SP68_map0859,http://purl.org/fr/eclats/resource/surveyPoint68,0.8302039082733828,0.41650597696327263
http://purl.org/fr/eclats/resource/inventoryEntry_SP680_map0859,http://purl.org/fr/eclats/resource/surveyPoint680,0.1692060040450106,0.9715765406307844
http://purl.org/fr/eclats/resource/inventoryEntry_SP681_map0859,http://purl.org/fr/eclats/resource/surveyPoint681,0.15478126298945816,1.0096990705633153
http://purl.org/fr/eclats/resource/inventoryEntry_SP682_map0859,http://purl.org/fr/eclats/resource/surveyPoint682,0.20114650209659093,0.9978501761248263
http://purl.org/fr/eclats/resource/inventoryEntry_SP683_map0859,http://purl.org/fr/eclats/resource/surveyPoint683,0.17744871321961195,1.0274724122210497
http://purl.org/fr/eclats/resource/inventoryEntry_SP684_map0859,http://purl.org/fr/eclats/resource/surveyPoint684,0.21814708976920624,1.0184569490613296
http://purl.org/fr/eclats/resource/inventoryEntry_SP685_map0859,http://purl.org/fr/eclats/resource/surveyPoint685,0.21763192044579366,1.0537460477150917
http://purl.org/fr/eclats/resource/inventoryEntry_SP686_map0859,http://purl.org/fr/eclats/resource/surveyPoint686,0.2580727123336817,1.0498822777894972
http://purl.org/fr/eclats/resource/inventoryEntry_SP687_map0859,http://purl.org/fr/eclats/resource/surveyPoint687,0.28133719654113754,1.0721482023079871
http://purl.org/fr/eclats/resource/inventoryEntry_SP688_map0859,http://purl.org/fr/eclats/resource/surveyPoint688,0.3165501309954194,1.0699692387075457
http://purl.org/fr/eclats/resource/inventoryEntry_SP689_map0859,http://purl.org/fr/eclats/resource/surveyPoint689,0.302084176393994,1.0944500849561116
http://purl.org/fr/eclats/resource/inventoryEntry_SP69_map0859,http://purl.org/fr/eclats/resource/surveyPoint69,0.8001523644076485,0.4157904640140885
http://purl.org/fr/eclats/resource/inventoryEntry_SP690_map0859,http://purl.org/fr/eclats/resource/surveyPoint690,0.13700792133172393,1.0424123226000146
http://purl.org/fr/eclats/resource/inventoryEntry_SP691_map0859,http://purl.org/fr/eclats/resource/surveyPoint691,0.18028214449838117,1.056837063655567
http://purl.org/fr/eclats/resource/inventoryEntry_SP692_map0859,http://purl.org/fr/eclats/resource/surveyPoint692,0.2124802272116678,1.082080360502784
http://purl.org/fr/eclats/resource/inventoryEntry_SP693_map0859,http://purl.org/fr/eclats/resource/surveyPoint693,0.2282526106710977,1.1135165506800089
http://purl.org/fr/eclats/resource/inventoryEntry_SP694_map0859,http://purl.org/fr/eclats/resource/surveyPoint694,0.24570404563972054,1.0874025686118274
http://purl.org/fr/eclats/resource/inventoryEntry_SP695_map0859,http://purl.org/fr/eclats/resource/surveyPoint695,0.25571893728686124,1.120785540768963
http://purl.org/fr/eclats/resource/inventoryEntry_SP696_map0859,http://purl.org/fr/eclats/resource/surveyPoint696,0.2813125492739985,1.0985302259975394
http://purl.org/fr/eclats/resource/inventoryEntry_SP697_map0859,http://purl.org/fr/eclats/resource/surveyPoint697,0.26536290702114484,1.1422990117146725
http://purl.org/fr/eclats/resource/inventoryEntry_SP698_map0859,http://purl.org/fr/eclats/resource/surveyPoint698,0.29689126961399515,1.1315422762418177
http://purl.org/fr/eclats/resource/inventoryEntry_SP699_map0859,http://purl.org/fr/eclats/resource/surveyPoint699,0.3205891863067709,1.1359326856771417
http://purl.org/fr/eclats/resource/inventoryEntry_SP7_map0859,http://purl.org/fr/eclats/resource/surveyPoint7,0.643834848800669,0.5936892193929635
http://purl.org/fr/eclats/resource/inventoryEntry_SP70_map0859,http://purl.org/fr/eclats/resource/surveyPoint70,0.8918364090874782,0.6257783031476558
http://purl.org/fr/eclats/resource/inventoryEntry_SP702_map0859,http://purl.org/fr/eclats/resource/surveyPoint702,0.4906389846109207,0.7208533165800461
http://purl.org/fr/eclats/resource/inventoryEntry_SP703_map0859,http://purl.org/fr/eclats/resource/surveyPoint703,0.5236098213093262,0.7401721662080182
http://purl.org/fr/eclats/resource/inventoryEntry_SP704_map0859,http://purl.org/fr/eclats/resource/surveyPoint704,0.46075916385299065,0.741717674178256
http://purl.org/fr/eclats/resource/inventoryEntry_SP705_map0859,http://purl.org/fr/eclats/resource/surveyPoint705,0.5225548431868454,0.7765166610775528
http://purl.org/fr/eclats/resource/inventoryEntry_SP706_map0859,http://purl.org/fr/eclats/resource/surveyPoint706,0.4871081497775808,0.7721838758312658
http://purl.org/fr/eclats/resource/inventoryEntry_SP707_map0859,http://purl.org/fr/eclats/resource/surveyPoint707,0.46257565617405993,0.7859834034832462
http://purl.org/fr/eclats/resource/inventoryEntry_SP708_map0859,http://purl.org/fr/eclats/resource/surveyPoint708,0.4918384751189114,0.7978815118482586
http://purl.org/fr/eclats/resource/inventoryEntry_SP709_map0859,http://purl.org/fr/eclats/resource/surveyPoint709,0.5274469787531894,0.8193949827939683
http://purl.org/fr/eclats/resource/inventoryEntry_SP71_map0859,http://purl.org/fr/eclats/resource/surveyPoint71,0.8961749844030427,0.5615966378203707
http://purl.org/fr/eclats/resource/inventoryEntry_SP710_map0859,http://purl.org/fr/eclats/resource/surveyPoint710,0.44658600175034985,0.823846045748253
http://purl.org/fr/eclats/resource/inventoryEntry_SP711_map0859,http://purl.org/fr/eclats/resource/surveyPoint711,0.43657111010320915,0.8509233453868186
http://purl.org/fr/eclats/resource/inventoryEntry_SP712_map0859,http://purl.org/fr/eclats/resource/surveyPoint712,0.42669688427891045,0.8795135353466698
http://purl.org/fr/eclats/resource/inventoryEntry_SP713_map0859,http://purl.org/fr/eclats/resource/surveyPoint713,0.4506661427917775,0.8995141159710937
http://purl.org/fr/eclats/resource/inventoryEntry_SP714_map0859,http://purl.org/fr/eclats/resource/surveyPoint714,0.47292145756320125,0.8316354059182514
http://purl.org/fr/eclats/resource/inventoryEntry_SP715_map0859,http://purl.org/fr/eclats/resource/surveyPoint715,0.47267022046064533,0.8674553901657922
http://purl.org/fr/eclats/resource/inventoryEntry_SP716_map0859,http://purl.org/fr/eclats/resource/surveyPoint716,0.4849579930965961,0.9024830659272338
http://purl.org/fr/eclats/resource/inventoryEntry_SP717_map0859,http://purl.org/fr/eclats/resource/surveyPoint717,0.5029661325046233,0.8512942672996756
http://purl.org/fr/eclats/resource/inventoryEntry_SP718_map0859,http://purl.org/fr/eclats/resource/surveyPoint718,0.5245166390322735,0.8877635697651213
http://purl.org/fr/eclats/resource/inventoryEntry_SP719_map0859,http://purl.org/fr/eclats/resource/surveyPoint719,0.5397512576577728,0.8514837146426667
http://purl.org/fr/eclats/resource/inventoryEntry_SP72_map0859,http://purl.org/fr/eclats/resource/surveyPoint72,0.8773704544860528,0.5508520767505292
http://purl.org/fr/eclats/resource/inventoryEntry_SP720_map0859,http://purl.org/fr/eclats/resource/surveyPoint720,0.4006311098251697,0.9218320868127432
http://purl.org/fr/eclats/resource/inventoryEntry_SP722_map0859,http://purl.org/fr/eclats/resource/surveyPoint722,0.4326965151599279,0.9304438607640702
http://purl.org/fr/eclats/resource/inventoryEntry_SP724_map0859,http://purl.org/fr/eclats/resource/surveyPoint724,0.47300272890070544,0.9372386675851767
http://purl.org/fr/eclats/resource/inventoryEntry_SP727_map0859,http://purl.org/fr/eclats/resource/surveyPoint727,0.5173353159253815,0.9121346725230107
http://purl.org/fr/eclats/resource/inventoryEntry_SP728_map0859,http://purl.org/fr/eclats/resource/surveyPoint728,0.5447559462551782,0.938361837822383
http://purl.org/fr/eclats/resource/inventoryEntry_SP729_map0859,http://purl.org/fr/eclats/resource/surveyPoint729,0.5637686287979069,0.9037096906074098
http://purl.org/fr/eclats/resource/inventoryEntry_SP73_map0859,http://purl.org/fr/eclats/resource/surveyPoint73,0.8983439773753189,0.5434559693249689
http://purl.org/fr/eclats/resource/inventoryEntry_SP731_map0859,http://purl.org/fr/eclats/resource/surveyPoint731,0.40305308538900686,0.9536134380562843
http://purl.org/fr/eclats/resource/inventoryEntry_SP733_map0859,http://purl.org/fr/eclats/resource/surveyPoint733,0.4408371479638855,0.9563732057389644
http://purl.org/fr/eclats/resource/inventoryEntry_SP735_map0859,http://purl.org/fr/eclats/resource/surveyPoint735,0.4984508645785326,0.9448016173933074
http://purl.org/fr/eclats/resource/inventoryEntry_SP737_map0859,http://purl.org/fr/eclats/resource/surveyPoint737,0.5263565760525375,0.9730139850373563
http://purl.org/fr/eclats/resource/inventoryEntry_SP74_map0859,http://purl.org/fr/eclats/resource/surveyPoint74,0.8752737793974709,0.5308363738499067
http://purl.org/fr/eclats/resource/inventoryEntry_SP741_map0859,http://purl.org/fr/eclats/resource/surveyPoint741,0.41093817138459454,0.974005935516495
http://purl.org/fr/eclats/resource/inventoryEntry_SP743_map0859,http://purl.org/fr/eclats/resource/surveyPoint743,0.44083714796388557,0.9911275716772856
http://purl.org/fr/eclats/resource/inventoryEntry_SP744_map0859,http://purl.org/fr/eclats/resource/surveyPoint744,0.4730360458185067,0.9793724184922652
http://purl.org/fr/eclats/resource/inventoryEntry_SP746_map0859,http://purl.org/fr/eclats/resource/surveyPoint746,0.5172188858510901,0.9998649971775609
http://purl.org/fr/eclats/resource/inventoryEntry_SP748_map0859,http://purl.org/fr/eclats/resource/surveyPoint748,0.5617295153939375,0.976867838580423
http://purl.org/fr/eclats/resource/inventoryEntry_SP75_map0859,http://purl.org/fr/eclats/resource/surveyPoint75,0.8664006263290679,0.513681611250994
http://purl.org/fr/eclats/resource/inventoryEntry_SP750_map0859,http://purl.org/fr/eclats/resource/surveyPoint750,0.38647406506940996,1.0002657190178486
http://purl.org/fr/eclats/resource/inventoryEntry_SP752_map0859,http://purl.org/fr/eclats/resource/surveyPoint752,0.41318044279511845,1.016823673207788
http://purl.org/fr/eclats/resource/inventoryEntry_SP753_map0859,http://purl.org/fr/eclats/resource/surveyPoint753,0.4549045887860477,1.0169500917000653
http://purl.org/fr/eclats/resource/inventoryEntry_SP755_map0859,http://purl.org/fr/eclats/resource/surveyPoint755,0.4877167989807569,1.0178700602101973
http://purl.org/fr/eclats/resource/inventoryEntry_SP757_map0859,http://purl.org/fr/eclats/resource/surveyPoint757,0.5415684590491174,1.0257040682123453
http://purl.org/fr/eclats/resource/inventoryEntry_SP758_map0859,http://purl.org/fr/eclats/resource/surveyPoint758,0.5661009526526383,1.0106779158801888
http://purl.org/fr/eclats/resource/inventoryEntry_SP759_map0859,http://purl.org/fr/eclats/resource/surveyPoint759,0.6108727534790639,1.0094512912000129
http://purl.org/fr/eclats/resource/inventoryEntry_SP76_map0859,http://purl.org/fr/eclats/resource/surveyPoint76,0.8532605301503438,0.45329961366912197
http://purl.org/fr/eclats/resource/inventoryEntry_SP760_map0859,http://purl.org/fr/eclats/resource/surveyPoint760,0.3827351721878108,1.0323133722886988
http://purl.org/fr/eclats/resource/inventoryEntry_SP762_map0859,http://purl.org/fr/eclats/resource/surveyPoint762,0.4079861947693141,1.0485356772145984
http://purl.org/fr/eclats/resource/inventoryEntry_SP763_map0859,http://purl.org/fr/eclats/resource/surveyPoint763,0.44723818453494746,1.0488423333846424
http://purl.org/fr/eclats/resource/inventoryEntry_SP764_map0859,http://purl.org/fr/eclats/resource/surveyPoint764,0.4812770194098327,1.0466957401943344
http://purl.org/fr/eclats/resource/inventoryEntry_SP766_map0859,http://purl.org/fr/eclats/resource/surveyPoint766,0.5158093407654205,1.043796782244942
http://purl.org/fr/eclats/resource/inventoryEntry_SP768_map0859,http://purl.org/fr/eclats/resource/surveyPoint768,0.5792871679645307,1.0349037533136656
http://purl.org/fr/eclats/resource/inventoryEntry_SP77_map0859,http://purl.org/fr/eclats/resource/surveyPoint77,0.8391478201381846,0.4354670701166526
http://purl.org/fr/eclats/resource/inventoryEntry_SP771_map0859,http://purl.org/fr/eclats/resource/surveyPoint771,0.37916051478517704,1.0703082652877232
http://purl.org/fr/eclats/resource/inventoryEntry_SP772_map0859,http://purl.org/fr/eclats/resource/surveyPoint772,0.40816784347111373,1.0818387399189715
http://purl.org/fr/eclats/resource/inventoryEntry_SP773_map0859,http://purl.org/fr/eclats/resource/surveyPoint773,0.4524513394256957,1.0868676984700998
http://purl.org/fr/eclats/resource/inventoryEntry_SP776_map0859,http://purl.org/fr/eclats/resource/surveyPoint776,0.5173426216156405,1.079675554140091
http://purl.org/fr/eclats/resource/inventoryEntry_SP777_map0859,http://purl.org/fr/eclats/resource/surveyPoint777,0.553569233311082,1.066630941491832
http://purl.org/fr/eclats/resource/inventoryEntry_SP778_map0859,http://purl.org/fr/eclats/resource/surveyPoint778,0.5821302206010758,1.065889097666118
http://purl.org/fr/eclats/resource/inventoryEntry_SP779_map0859,http://purl.org/fr/eclats/resource/surveyPoint779,0.6084656764139272,1.0451174705461224
http://purl.org/fr/eclats/resource/inventoryEntry_SP78_map0859,http://purl.org/fr/eclats/resource/surveyPoint78,0.8636541386477417,0.43332053126910014
http://purl.org/fr/eclats/resource/inventoryEntry_SP780_map0859,http://purl.org/fr/eclats/resource/surveyPoint780,0.33657991428970074,1.0989011479103965
http://purl.org/fr/eclats/resource/inventoryEntry_SP781_map0859,http://purl.org/fr/eclats/resource/surveyPoint781,0.3599479947996957,1.084064271396114
http://purl.org/fr/eclats/resource/inventoryEntry_SP782_map0859,http://purl.org/fr/eclats/resource/surveyPoint782,0.3886668560565414,1.1022005069723004
http://purl.org/fr/eclats/resource/inventoryEntry_SP783_map0859,http://purl.org/fr/eclats/resource/surveyPoint783,0.4115061406868273,1.109657883383251
http://purl.org/fr/eclats/resource/inventoryEntry_SP784_map0859,http://purl.org/fr/eclats/resource/surveyPoint784,0.4478514968750355,1.1178399716445448
http://purl.org/fr/eclats/resource/inventoryEntry_SP785_map0859,http://purl.org/fr/eclats/resource/surveyPoint785,0.4805438812103592,1.0931684256220278
http://purl.org/fr/eclats/resource/inventoryEntry_SP786_map0859,http://purl.org/fr/eclats/resource/surveyPoint786,0.5127427790649803,1.1195408562458125
http://purl.org/fr/eclats/resource/inventoryEntry_SP787_map0859,http://purl.org/fr/eclats/resource/surveyPoint787,0.5348220233081492,1.104208047743612
http://purl.org/fr/eclats/resource/inventoryEntry_SP790_map0859,http://purl.org/fr/eclats/resource/surveyPoint790,0.3595345199023603,1.120293221004897
http://purl.org/fr/eclats/resource/inventoryEntry_SP791_map0859,http://purl.org/fr/eclats/resource/surveyPoint791,0.39704018608540187,1.1385897925861022
http://purl.org/fr/eclats/resource/inventoryEntry_SP792_map0859,http://purl.org/fr/eclats/resource/surveyPoint792,0.4333905335453939,1.1526848252746704
http://purl.org/fr/eclats/resource/inventoryEntry_SP793_map0859,http://purl.org/fr/eclats/resource/surveyPoint793,0.4687041164380283,1.1359326856771417
http://purl.org/fr/eclats/resource/inventoryEntry_SP794_map0859,http://purl.org/fr/eclats/resource/surveyPoint794,0.47048272483110015,1.1645543264860965
http://purl.org/fr/eclats/resource/inventoryEntry_SP795_map0859,http://purl.org/fr/eclats/resource/surveyPoint795,0.505349384639664,1.149717449971814
http://purl.org/fr/eclats/resource/inventoryEntry_SP796_map0859,http://purl.org/fr/eclats/resource/surveyPoint796,0.5063029994940562,1.1768855600440424
http://purl.org/fr/eclats/resource/inventoryEntry_SP797_map0859,http://purl.org/fr/eclats/resource/surveyPoint797,0.5298302308882301,1.1363642611089597
http://purl.org/fr/eclats/resource/inventoryEntry_SP798_map0859,http://purl.org/fr/eclats/resource/surveyPoint798,0.5442961854896555,1.1697472332660954
http://purl.org/fr/eclats/resource/inventoryEntry_SP8_map0859,http://purl.org/fr/eclats/resource/surveyPoint8,0.6407718549768806,0.5624706185968387
http://purl.org/fr/eclats/resource/inventoryEntry_SP800_map0859,http://purl.org/fr/eclats/resource/surveyPoint800,0.5017151250642913,0.675003246796326
http://purl.org/fr/eclats/resource/inventoryEntry_SP801_map0859,http://purl.org/fr/eclats/resource/surveyPoint801,0.5214728657183729,0.7036859260835167
http://purl.org/fr/eclats/resource/inventoryEntry_SP802_map0859,http://purl.org/fr/eclats/resource/surveyPoint802,0.5474350543259228,0.691690737676231
http://purl.org/fr/eclats/resource/inventoryEntry_SP803_map0859,http://purl.org/fr/eclats/resource/surveyPoint803,0.5687963487498561,0.7064793261235695
http://purl.org/fr/eclats/resource/inventoryEntry_SP804_map0859,http://purl.org/fr/eclats/resource/surveyPoint804,0.5545199807140814,0.7329597956802418
http://purl.org/fr/eclats/resource/inventoryEntry_SP805_map0859,http://purl.org/fr/eclats/resource/surveyPoint805,0.548080364171424,0.762839616438172
http://purl.org/fr/eclats/resource/inventoryEntry_SP806_map0859,http://purl.org/fr/eclats/resource/surveyPoint806,0.584406525444269,0.7381926324606398
http://purl.org/fr/eclats/resource/inventoryEntry_SP807_map0859,http://purl.org/fr/eclats/resource/surveyPoint807,0.5548952003046119,0.7912049174168315
http://purl.org/fr/eclats/resource/inventoryEntry_SP808_map0859,http://purl.org/fr/eclats/resource/surveyPoint808,0.6161198317813392,0.7526525856091485
http://purl.org/fr/eclats/resource/inventoryEntry_SP809_map0859,http://purl.org/fr/eclats/resource/surveyPoint809,0.5966634176141481,0.7810597154485752
http://purl.org/fr/eclats/resource/inventoryEntry_SP810_map0859,http://purl.org/fr/eclats/resource/surveyPoint810,0.5595313927320009,0.8731433610434763
http://purl.org/fr/eclats/resource/inventoryEntry_SP811_map0859,http://purl.org/fr/eclats/resource/surveyPoint811,0.5518126016568672,0.8169556766576913
http://purl.org/fr/eclats/resource/inventoryEntry_SP812_map0859,http://purl.org/fr/eclats/resource/surveyPoint812,0.583407170754316,0.8216699203328323
http://purl.org/fr/eclats/resource/inventoryEntry_SP813_map0859,http://purl.org/fr/eclats/resource/surveyPoint813,0.5878792399007912,0.8531873600318001
http://purl.org/fr/eclats/resource/inventoryEntry_SP814_map0859,http://purl.org/fr/eclats/resource/surveyPoint814,0.6121561866959421,0.8516966703163084
http://purl.org/fr/eclats/resource/inventoryEntry_SP815_map0859,http://purl.org/fr/eclats/resource/surveyPoint815,0.6186805320479677,0.8214372796043735
http://purl.org/fr/eclats/resource/inventoryEntry_SP816_map0859,http://purl.org/fr/eclats/resource/surveyPoint816,0.6273290346185492,0.7938370558670756
http://purl.org/fr/eclats/resource/inventoryEntry_SP817_map0859,http://purl.org/fr/eclats/resource/surveyPoint817,0.6567995976298273,0.81590043208969
http://purl.org/fr/eclats/resource/inventoryEntry_SP818_map0859,http://purl.org/fr/eclats/resource/surveyPoint818,0.6619698241975949,0.764591143353619
http://purl.org/fr/eclats/resource/inventoryEntry_SP819_map0859,http://purl.org/fr/eclats/resource/surveyPoint819,0.6396172556476659,0.7427935266442562
http://purl.org/fr/eclats/resource/inventoryEntry_SP821_map0859,http://purl.org/fr/eclats/resource/surveyPoint821,0.6094603981344645,0.8843903518946371
http://purl.org/fr/eclats/resource/inventoryEntry_SP822_map0859,http://purl.org/fr/eclats/resource/surveyPoint822,0.6168201462155207,0.9178158744294344
http://purl.org/fr/eclats/resource/inventoryEntry_SP824_map0859,http://purl.org/fr/eclats/resource/surveyPoint824,0.6464448692041693,0.8788157627612646
http://purl.org/fr/eclats/resource/inventoryEntry_SP825_map0859,http://purl.org/fr/eclats/resource/surveyPoint825,0.6585032430189608,0.8448624037049578
http://purl.org/fr/eclats/resource/inventoryEntry_SP826_map0859,http://purl.org/fr/eclats/resource/surveyPoint826,0.6783371108887465,0.8680827968097242
http://purl.org/fr/eclats/resource/inventoryEntry_SP827_map0859,http://purl.org/fr/eclats/resource/surveyPoint827,0.6902336383915703,0.831659151939174
http://purl.org/fr/eclats/resource/inventoryEntry_SP829_map0859,http://purl.org/fr/eclats/resource/surveyPoint829,0.6960427319802627,0.7912815877833755
http://purl.org/fr/eclats/resource/inventoryEntry_SP830_map0859,http://purl.org/fr/eclats/resource/surveyPoint830,0.5903267900861153,0.9496533380414311
http://purl.org/fr/eclats/resource/inventoryEntry_SP833_map0859,http://purl.org/fr/eclats/resource/surveyPoint833,0.6596529003882019,0.9019416121832965
http://purl.org/fr/eclats/resource/inventoryEntry_SP836_map0859,http://purl.org/fr/eclats/resource/surveyPoint836,0.7019496359821353,0.8880154478625849
http://purl.org/fr/eclats/resource/inventoryEntry_SP837_map0859,http://purl.org/fr/eclats/resource/surveyPoint837,0.7138717181657961,0.8582786111443832
http://purl.org/fr/eclats/resource/inventoryEntry_SP838_map0859,http://purl.org/fr/eclats/resource/surveyPoint838,0.7341025071617552,0.8420939799476159
http://purl.org/fr/eclats/resource/inventoryEntry_SP840_map0859,http://purl.org/fr/eclats/resource/surveyPoint840,0.5986065066773036,0.9772523933453922
http://purl.org/fr/eclats/resource/inventoryEntry_SP841_map0859,http://purl.org/fr/eclats/resource/surveyPoint841,0.6301920921918368,0.9603863039929715
http://purl.org/fr/eclats/resource/inventoryEntry_SP842_map0859,http://purl.org/fr/eclats/resource/surveyPoint842,0.6557265848610677,0.93650508432368
http://purl.org/fr/eclats/resource/inventoryEntry_SP844_map0859,http://purl.org/fr/eclats/resource/surveyPoint844,0.6850835466297147,0.9275740937982624
http://purl.org/fr/eclats/resource/inventoryEntry_SP847_map0859,http://purl.org/fr/eclats/resource/surveyPoint847,0.7402782216973633,0.8714818629101668
http://purl.org/fr/eclats/resource/inventoryEntry_SP849_map0859,http://purl.org/fr/eclats/resource/surveyPoint849,0.7651940355134396,0.852528807956058
http://purl.org/fr/eclats/resource/inventoryEntry_SP85_map0859,http://purl.org/fr/eclats/resource/surveyPoint85,0.8821924393531946,0.43846273715483947
http://purl.org/fr/eclats/resource/inventoryEntry_SP851_map0859,http://purl.org/fr/eclats/resource/surveyPoint851,0.6500089306539183,0.9950430123104189
http://purl.org/fr/eclats/resource/inventoryEntry_SP852_map0859,http://purl.org/fr/eclats/resource/surveyPoint852,0.666070864086986,0.9701993014343798
http://purl.org/fr/eclats/resource/inventoryEntry_SP853_map0859,http://purl.org/fr/eclats/resource/surveyPoint853,0.7041635299310494,0.9638855716304259
http://purl.org/fr/eclats/resource/inventoryEntry_SP855_map0859,http://purl.org/fr/eclats/resource/surveyPoint855,0.7236676791533128,0.9255726040151521
http://purl.org/fr/eclats/resource/inventoryEntry_SP857_map0859,http://purl.org/fr/eclats/resource/surveyPoint857,0.7524166950949388,0.8914996962324842
http://purl.org/fr/eclats/resource/inventoryEntry_SP86_map0859,http://purl.org/fr/eclats/resource/surveyPoint86,0.8649062863088139,0.4190102722854172
http://purl.org/fr/eclats/resource/inventoryEntry_SP861_map0859,http://purl.org/fr/eclats/resource/surveyPoint861,0.6448160238739193,1.0291678282932686
http://purl.org/fr/eclats/resource/inventoryEntry_SP862_map0859,http://purl.org/fr/eclats/resource/surveyPoint862,0.6763443864667696,1.0128472641275579
http://purl.org/fr/eclats/resource/inventoryEntry_SP863_map0859,http://purl.org/fr/eclats/resource/surveyPoint863,0.6853902027997587,0.9879853592969325
http://purl.org/fr/eclats/resource/inventoryEntry_SP864_map0859,http://purl.org/fr/eclats/resource/surveyPoint864,0.7266490585842966,0.9847742812875372
http://purl.org/fr/eclats/resource/inventoryEntry_SP865_map0859,http://purl.org/fr/eclats/resource/surveyPoint865,0.7516415347767533,0.9590635867632841
http://purl.org/fr/eclats/resource/inventoryEntry_SP866_map0859,http://purl.org/fr/eclats/resource/surveyPoint866,0.7754159078482397,0.9336649196135357
http://purl.org/fr/eclats/resource/inventoryEntry_SP868_map0859,http://purl.org/fr/eclats/resource/surveyPoint868,0.7845730018148316,0.9006567901990762
http://purl.org/fr/eclats/resource/inventoryEntry_SP869_map0859,http://purl.org/fr/eclats/resource/surveyPoint869,0.8018936723564412,0.868600458377929
http://purl.org/fr/eclats/resource/inventoryEntry_SP87_map0859,http://purl.org/fr/eclats/resource/surveyPoint87,0.8625808692239654,0.40148020503040555
http://purl.org/fr/eclats/resource/inventoryEntry_SP871_map0859,http://purl.org/fr/eclats/resource/surveyPoint871,0.6681841043839143,1.043633782894694
http://purl.org/fr/eclats/resource/inventoryEntry_SP872_map0859,http://purl.org/fr/eclats/resource/surveyPoint872,0.7245642351381878,1.0536486745418348
http://purl.org/fr/eclats/resource/inventoryEntry_SP873_map0859,http://purl.org/fr/eclats/resource/surveyPoint873,0.7204840940967601,1.0176692489946997
http://purl.org/fr/eclats/resource/inventoryEntry_SP874_map0859,http://purl.org/fr/eclats/resource/surveyPoint874,0.7583181292081804,1.0087671230861301
http://purl.org/fr/eclats/resource/inventoryEntry_SP875_map0859,http://purl.org/fr/eclats/resource/surveyPoint875,0.7818045780574898,0.9662471376807118
http://purl.org/fr/eclats/resource/inventoryEntry_SP876_map0859,http://purl.org/fr/eclats/resource/surveyPoint876,0.8195202448295957,0.9724167756261383
http://purl.org/fr/eclats/resource/inventoryEntry_SP877_map0859,http://purl.org/fr/eclats/resource/surveyPoint877,0.8069088997924555,0.9323572090375756
http://purl.org/fr/eclats/resource/inventoryEntry_SP878_map0859,http://purl.org/fr/eclats/resource/surveyPoint878,0.8318491613632837,0.9477199940738859
http://purl.org/fr/eclats/resource/inventoryEntry_SP879_map0859,http://purl.org/fr/eclats/resource/surveyPoint879,0.8254604911540331,0.8953328983580343
http://purl.org/fr/eclats/resource/inventoryEntry_SP88_map0859,http://purl.org/fr/eclats/resource/surveyPoint88,0.8803378297889093,0.39469395143770614
#http://purl.org/fr/eclats/resource/inventoryEntry_SP882_map0859,http://purl.org/fr/eclats/resource/surveyPoint882,0.7713003961581775,1.0755330674004013
http://purl.org/fr/eclats/resource/inventoryEntry_SP883_map0859,http://purl.org/fr/eclats/resource/surveyPoint883,0.7594308949467515,1.04289193906898
http://purl.org/fr/eclats/resource/inventoryEntry_SP884_map0859,http://purl.org/fr/eclats/resource/surveyPoint884,0.7935557109296012,1.0414082514175518
http://purl.org/fr/eclats/resource/inventoryEntry_SP885_map0859,http://purl.org/fr/eclats/resource/surveyPoint885,0.7917011013653159,1.001348684828989
http://purl.org/fr/eclats/resource/inventoryEntry_SP886_map0859,http://purl.org/fr/eclats/resource/surveyPoint886,0.8236003858710232,1.0158146394304144
http://purl.org/fr/eclats/resource/inventoryEntry_SP887_map0859,http://purl.org/fr/eclats/resource/surveyPoint887,0.8484597039073343,0.9852001926348206
http://purl.org/fr/eclats/resource/inventoryEntry_SP888_map0859,http://purl.org/fr/eclats/resource/surveyPoint888,0.8814642042767249,0.9701912441489959
http://purl.org/fr/eclats/resource/inventoryEntry_SP889_map0859,http://purl.org/fr/eclats/resource/surveyPoint889,0.8597463546103427,0.9157766430276351
http://purl.org/fr/eclats/resource/inventoryEntry_SP89_map0859,http://purl.org/fr/eclats/resource/surveyPoint89,0.8500057336396833,0.3932634999849943
http://purl.org/fr/eclats/resource/inventoryEntry_SP893_map0859,http://purl.org/fr/eclats/resource/surveyPoint893,0.8169237914395961,1.0818387399189715
http://purl.org/fr/eclats/resource/inventoryEntry_SP894_map0859,http://purl.org/fr/eclats/resource/surveyPoint894,0.8362117309081634,1.0469720801104077
#http://purl.org/fr/eclats/resource/inventoryEntry_SP895_map0859,http://purl.org/fr/eclats/resource/surveyPoint895,0.8651436401110142,1.0636635661889755
http://purl.org/fr/eclats/resource/inventoryEntry_SP896_map0859,http://purl.org/fr/eclats/resource/surveyPoint896,0.862918108633872,1.013960029866129
http://purl.org/fr/eclats/resource/inventoryEntry_SP897_map0859,http://purl.org/fr/eclats/resource/surveyPoint897,0.8959301588781503,1.0176692489947
http://purl.org/fr/eclats/resource/inventoryEntry_SP898_map0859,http://purl.org/fr/eclats/resource/surveyPoint898,0.9100251915667188,0.9783515262318513
http://purl.org/fr/eclats/resource/inventoryEntry_SP899_map0859,http://purl.org/fr/eclats/resource/surveyPoint899,0.9357973965146096,0.988405387823
http://purl.org/fr/eclats/resource/inventoryEntry_SP901_map0859,http://purl.org/fr/eclats/resource/surveyPoint901,0.520548289318582,0.64821107947956
http://purl.org/fr/eclats/resource/inventoryEntry_SP902_map0859,http://purl.org/fr/eclats/resource/surveyPoint902,0.5519740397691764,0.65461946780674
http://purl.org/fr/eclats/resource/inventoryEntry_SP903_map0859,http://purl.org/fr/eclats/resource/surveyPoint903,0.5880325750593784,0.6459422319068928
http://purl.org/fr/eclats/resource/inventoryEntry_SP904_map0859,http://purl.org/fr/eclats/resource/surveyPoint904,0.5872438503421871,0.6798573947461224
http://purl.org/fr/eclats/resource/inventoryEntry_SP905_map0859,http://purl.org/fr/eclats/resource/surveyPoint905,0.611190302298893,0.7094370438130372
http://purl.org/fr/eclats/resource/inventoryEntry_SP906_map0859,http://purl.org/fr/eclats/resource/surveyPoint906,0.6249054555880758,0.673941959367187
http://purl.org/fr/eclats/resource/inventoryEntry_SP907_map0859,http://purl.org/fr/eclats/resource/surveyPoint907,0.6286518979947349,0.6427873330381273
http://purl.org/fr/eclats/resource/inventoryEntry_SP908_map0859,http://purl.org/fr/eclats/resource/surveyPoint908,0.6520407775210822,0.7078660301266475
http://purl.org/fr/eclats/resource/inventoryEntry_SP909_map0859,http://purl.org/fr/eclats/resource/surveyPoint909,0.6512066082904584,0.6668458511876518
http://purl.org/fr/eclats/resource/inventoryEntry_SP911_map0859,http://purl.org/fr/eclats/resource/surveyPoint911,0.6707729895543777,0.7366544823041332
http://purl.org/fr/eclats/resource/inventoryEntry_SP912_map0859,http://purl.org/fr/eclats/resource/surveyPoint912,0.7042937900350116,0.7547951507995351
http://purl.org/fr/eclats/resource/inventoryEntry_SP913_map0859,http://purl.org/fr/eclats/resource/surveyPoint913,0.7079576609575889,0.7206295285519259
http://purl.org/fr/eclats/resource/inventoryEntry_SP914_map0859,http://purl.org/fr/eclats/resource/surveyPoint914,0.6792517802641852,0.7068801242301582
http://purl.org/fr/eclats/resource/inventoryEntry_SP915_map0859,http://purl.org/fr/eclats/resource/surveyPoint915,0.7226316397097114,0.7027393194649034
http://purl.org/fr/eclats/resource/inventoryEntry_SP916_map0859,http://purl.org/fr/eclats/resource/surveyPoint916,0.6850457152739189,0.6794630323875267
http://purl.org/fr/eclats/resource/inventoryEntry_SP917_map0859,http://purl.org/fr/eclats/resource/surveyPoint917,0.6974681295696832,0.677688401773846
http://purl.org/fr/eclats/resource/inventoryEntry_SP918_map0859,http://purl.org/fr/eclats/resource/surveyPoint918,0.7365159380570585,0.6576756453539679
http://purl.org/fr/eclats/resource/inventoryEntry_SP919_map0859,http://purl.org/fr/eclats/resource/surveyPoint919,0.6984540354661725,0.6487027684170626
http://purl.org/fr/eclats/resource/inventoryEntry_SP920_map0859,http://purl.org/fr/eclats/resource/surveyPoint920,0.7168530975967795,0.8137708753532733
http://purl.org/fr/eclats/resource/inventoryEntry_SP921_map0859,http://purl.org/fr/eclats/resource/surveyPoint921,0.7213134719190747,0.7765166610775528
http://purl.org/fr/eclats/resource/inventoryEntry_SP922_map0859,http://purl.org/fr/eclats/resource/surveyPoint922,0.7468849247633464,0.7549923319788329
http://purl.org/fr/eclats/resource/inventoryEntry_SP924_map0859,http://purl.org/fr/eclats/resource/surveyPoint924,0.7405751270258154,0.7254151550841558
http://purl.org/fr/eclats/resource/inventoryEntry_SP926_map0859,http://purl.org/fr/eclats/resource/surveyPoint926,0.7498426424528144,0.6922887169621176
http://purl.org/fr/eclats/resource/inventoryEntry_SP927_map0859,http://purl.org/fr/eclats/resource/surveyPoint927,0.7702725423175754,0.6716678360547936
http://purl.org/fr/eclats/resource/inventoryEntry_SP928_map0859,http://purl.org/fr/eclats/resource/surveyPoint928,0.7586002301384174,0.6480137675683735
http://purl.org/fr/eclats/resource/inventoryEntry_SP931_map0859,http://purl.org/fr/eclats/resource/surveyPoint931,0.7522037394212975,0.7869384604744224
http://purl.org/fr/eclats/resource/inventoryEntry_SP933_map0859,http://purl.org/fr/eclats/resource/surveyPoint933,0.7841521676506397,0.7463163600897276
http://purl.org/fr/eclats/resource/inventoryEntry_SP935_map0859,http://purl.org/fr/eclats/resource/surveyPoint935,0.7728689957075747,0.7124692464690705
#http://purl.org/fr/eclats/resource/inventoryEntry_SP936_map0859,http://purl.org/fr/eclats/resource/surveyPoint936,0.7962370762175697,0.6879884002205044
#http://purl.org/fr/eclats/resource/inventoryEntry_SP937_map0859,http://purl.org/fr/eclats/resource/surveyPoint937,0.8042646479390201,0.6593594600193772
http://purl.org/fr/eclats/resource/inventoryEntry_SP938_map0859,http://purl.org/fr/eclats/resource/surveyPoint938,0.7883745882123921,0.6417039698308423
#http://purl.org/fr/eclats/resource/inventoryEntry_SP939_map0859,http://purl.org/fr/eclats/resource/surveyPoint939,0.8069096190663898,0.6367744403483961
http://purl.org/fr/eclats/resource/inventoryEntry_SP940_map0859,http://purl.org/fr/eclats/resource/surveyPoint940,0.766258813881648,0.8150486093951234
http://purl.org/fr/eclats/resource/inventoryEntry_SP942_map0859,http://purl.org/fr/eclats/resource/surveyPoint942,0.7962855638651241,0.803549003018473
http://purl.org/fr/eclats/resource/inventoryEntry_SP943_map0859,http://purl.org/fr/eclats/resource/surveyPoint943,0.7946027701534255,0.772738638115639
http://purl.org/fr/eclats/resource/inventoryEntry_SP944_map0859,http://purl.org/fr/eclats/resource/surveyPoint944,0.8214597662918499,0.7265642791576389
http://purl.org/fr/eclats/resource/inventoryEntry_SP945_map0859,http://purl.org/fr/eclats/resource/surveyPoint945,0.800518205532361,0.7181194514501354
http://purl.org/fr/eclats/resource/inventoryEntry_SP946_map0859,http://purl.org/fr/eclats/resource/surveyPoint946,0.8233143758561352,0.7057926520376434
http://purl.org/fr/eclats/resource/inventoryEntry_SP947_map0859,http://purl.org/fr/eclats/resource/surveyPoint947,0.8229968599723155,0.6757254979010985
http://purl.org/fr/eclats/resource/inventoryEntry_SP950_map0859,http://purl.org/fr/eclats/resource/surveyPoint950,0.7996928546433908,0.834214620022874
http://purl.org/fr/eclats/resource/inventoryEntry_SP953_map0859,http://purl.org/fr/eclats/resource/surveyPoint953,0.822746291919434,0.7830433869356499
http://purl.org/fr/eclats/resource/inventoryEntry_SP954_map0859,http://purl.org/fr/eclats/resource/surveyPoint954,0.8231940411516132,0.7545979696202372
http://purl.org/fr/eclats/resource/inventoryEntry_SP955_map0859,http://purl.org/fr/eclats/resource/surveyPoint955,0.844095246157185,0.7374432070213245
http://purl.org/fr/eclats/resource/inventoryEntry_SP956_map0859,http://purl.org/fr/eclats/resource/surveyPoint956,0.8541008946232713,0.7017125109962157
http://purl.org/fr/eclats/resource/inventoryEntry_SP957_map0859,http://purl.org/fr/eclats/resource/surveyPoint957,0.8433065214399937,0.6757254979010985
#http://purl.org/fr/eclats/resource/inventoryEntry_SP958_map0859,http://purl.org/fr/eclats/resource/surveyPoint958,0.8478416885638441,0.6603453659158665
http://purl.org/fr/eclats/resource/inventoryEntry_SP959_map0859,http://purl.org/fr/eclats/resource/surveyPoint959,0.8584777731949844,0.647409542953942
http://purl.org/fr/eclats/resource/inventoryEntry_SP963_map0859,http://purl.org/fr/eclats/resource/surveyPoint963,0.8340925702110624,0.8054292873488627
http://purl.org/fr/eclats/resource/inventoryEntry_SP964_map0859,http://purl.org/fr/eclats/resource/surveyPoint964,0.8513909497912053,0.7776681675980852
http://purl.org/fr/eclats/resource/inventoryEntry_SP965_map0859,http://purl.org/fr/eclats/resource/surveyPoint965,0.864486708183269,0.7562380321862039
http://purl.org/fr/eclats/resource/inventoryEntry_SP966_map0859,http://purl.org/fr/eclats/resource/surveyPoint966,0.875614365568981,0.733611795501923
http://purl.org/fr/eclats/resource/inventoryEntry_SP967_map0859,http://purl.org/fr/eclats/resource/surveyPoint967,0.8661795382385439,0.7159504584778591
http://purl.org/fr/eclats/resource/inventoryEntry_SP968_map0859,http://purl.org/fr/eclats/resource/surveyPoint968,0.8742639665897556,0.6806550273835446
http://purl.org/fr/eclats/resource/inventoryEntry_SP969_map0859,http://purl.org/fr/eclats/resource/surveyPoint969,0.8835569941787348,0.6509027208546738
http://purl.org/fr/eclats/resource/inventoryEntry_SP971_map0859,http://purl.org/fr/eclats/resource/surveyPoint971,0.8408390059520305,0.840694746903924
http://purl.org/fr/eclats/resource/inventoryEntry_SP972_map0859,http://purl.org/fr/eclats/resource/surveyPoint972,0.8735983947863324,0.8314814117913711
http://purl.org/fr/eclats/resource/inventoryEntry_SP973_map0859,http://purl.org/fr/eclats/resource/surveyPoint973,0.8730642672318183,0.7983655034114926
http://purl.org/fr/eclats/resource/inventoryEntry_SP975_map0859,http://purl.org/fr/eclats/resource/surveyPoint975,0.9064044988153046,0.7362601199455373
http://purl.org/fr/eclats/resource/inventoryEntry_SP976_map0859,http://purl.org/fr/eclats/resource/surveyPoint976,0.893789539298977,0.7117274026433564
http://purl.org/fr/eclats/resource/inventoryEntry_SP977_map0859,http://purl.org/fr/eclats/resource/surveyPoint977,0.8924046350851573,0.695640797010181
http://purl.org/fr/eclats/resource/inventoryEntry_SP978_map0859,http://purl.org/fr/eclats/resource/surveyPoint978,0.903249599946539,0.6814437521007359
http://purl.org/fr/eclats/resource/inventoryEntry_SP979_map0859,http://purl.org/fr/eclats/resource/surveyPoint979,0.9138193225932583,0.6623947882333672
http://purl.org/fr/eclats/resource/inventoryEntry_SP980_map0859,http://purl.org/fr/eclats/resource/surveyPoint980,0.8565520195057175,0.8812778238976838
http://purl.org/fr/eclats/resource/inventoryEntry_SP981_map0859,http://purl.org/fr/eclats/resource/surveyPoint981,0.873620885227751,0.8634370435179298
http://purl.org/fr/eclats/resource/inventoryEntry_SP982_map0859,http://purl.org/fr/eclats/resource/surveyPoint982,0.8985422885199288,0.842453023675861
http://purl.org/fr/eclats/resource/inventoryEntry_SP985_map0859,http://purl.org/fr/eclats/resource/surveyPoint985,0.9323654182361114,0.7528997349704902
http://purl.org/fr/eclats/resource/inventoryEntry_SP986_map0859,http://purl.org/fr/eclats/resource/surveyPoint986,0.9327363401489686,0.7373210146304936
http://purl.org/fr/eclats/resource/inventoryEntry_SP987_map0859,http://purl.org/fr/eclats/resource/surveyPoint987,0.9394129345803957,0.7228550600290682
http://purl.org/fr/eclats/resource/inventoryEntry_SP988_map0859,http://purl.org/fr/eclats/resource/surveyPoint988,0.9171576198089719,0.6898430097847897
http://purl.org/fr/eclats/resource/inventoryEntry_SP989_map0859,http://purl.org/fr/eclats/resource/surveyPoint989,0.9264306676303984,0.6768607428347926
http://purl.org/fr/eclats/resource/inventoryEntry_SP990_map0859,http://purl.org/fr/eclats/resource/surveyPoint990,0.9400698665081408,0.9598054305889983
http://purl.org/fr/eclats/resource/inventoryEntry_SP991_map0859,http://purl.org/fr/eclats/resource/surveyPoint991,0.8985042872131277,0.9547475313040611
http://purl.org/fr/eclats/resource/inventoryEntry_SP992_map0859,http://purl.org/fr/eclats/resource/surveyPoint992,0.8992365174030126,0.8592560446261079
